^C:\USERS\USER\ONEDRIVE\바탕 화면\3학년2학기\GSE\GSE\SIMPLEGAME\SIMPLEGAME\DEBUG\GSEGAME.OBJ|C:\USERS\USER\ONEDRIVE\바탕 화면\3학년2학기\GSE\GSE\SIMPLEGAME\SIMPLEGAME\DEBUG\GSEOBJECT.OBJ|C:\USERS\USER\ONEDRIVE\바탕 화면\3학년2학기\GSE\GSE\SIMPLEGAME\SIMPLEGAME\DEBUG\GSEOBJECTMGR.OBJ|C:\USERS\USER\ONEDRIVE\바탕 화면\3학년2학기\GSE\GSE\SIMPLEGAME\SIMPLEGAME\DEBUG\LOADPNG.OBJ|C:\USERS\USER\ONEDRIVE\바탕 화면\3학년2학기\GSE\GSE\SIMPLEGAME\SIMPLEGAME\DEBUG\RENDERER.OBJ|C:\USERS\USER\ONEDRIVE\바탕 화면\3학년2학기\GSE\GSE\SIMPLEGAME\SIMPLEGAME\DEBUG\SIMPLEGAME.OBJ|C:\USERS\USER\ONEDRIVE\바탕 화면\3학년2학기\GSE\GSE\SIMPLEGAME\SIMPLEGAME\DEBUG\SOUND.OBJ|C:\USERS\USER\ONEDRIVE\바탕 화면\3학년2학기\GSE\GSE\SIMPLEGAME\SIMPLEGAME\DEBUG\STDAFX.OBJ
/OUT:"C:\USERS\USER\ONEDRIVE\바탕 화면\3학년2학기\GSE\GSE\SIMPLEGAME\DEBUG\SIMPLEGAME.EXE" /INCREMENTAL /ILK:"DEBUG\SIMPLEGAME.ILK" /NOLOGO /LIBPATH:.\DEPENDENCIES KERNEL32.LIB USER32.LIB GDI32.LIB WINSPOOL.LIB COMDLG32.LIB ADVAPI32.LIB SHELL32.LIB OLE32.LIB OLEAUT32.LIB UUID.LIB ODBC32.LIB ODBCCP32.LIB KERNEL32.LIB USER32.LIB GDI32.LIB WINSPOOL.LIB COMDLG32.LIB ADVAPI32.LIB SHELL32.LIB OLE32.LIB OLEAUT32.LIB UUID.LIB ODBC32.LIB ODBCCP32.LIB OPENGL32.LIB FREEGLUT.LIB GLEW32.LIB /MANIFEST /MANIFESTUAC:"level='asInvoker' uiAccess='false'" /manifest:embed /DEBUG /PDB:"C:\USERS\USER\ONEDRIVE\바탕 화면\3학년2학기\GSE\GSE\SIMPLEGAME\DEBUG\SIMPLEGAME.PDB" /SUBSYSTEM:CONSOLE /TLBID:1 /DYNAMICBASE /NXCOMPAT /IMPLIB:"C:\USERS\USER\ONEDRIVE\바탕 화면\3학년2학기\GSE\GSE\SIMPLEGAME\DEBUG\SIMPLEGAME.LIB" /MACHINE:X86 DEBUG\GSEGAME.OBJ
DEBUG\GSEOBJECT.OBJ
DEBUG\GSEOBJECTMGR.OBJ
DEBUG\LOADPNG.OBJ
DEBUG\RENDERER.OBJ
DEBUG\SIMPLEGAME.OBJ
DEBUG\SOUND.OBJ
DEBUG\STDAFX.OBJ
