^C:\USERS\USER\ONEDRIVE\바탕 화면\3학년2학기\GSE\GSE\SIMPLEGAME\SIMPLEGAME\STDAFX.CPP
C:\WINDOWS\GLOBALIZATION\SORTING\SORTDEFAULT.NLS
C:\PROGRAM FILES (X86)\MICROSOFT VISUAL STUDIO\2019\COMMUNITY\VC\TOOLS\MSVC\14.29.30133\BIN\HOSTX64\X64\1042\CLUI.DLL
C:\WINDOWS\SYSTEM32\TZRES.DLL
C:\USERS\USER\ONEDRIVE\바탕 화면\3학년2학기\GSE\GSE\SIMPLEGAME\SIMPLEGAME\STDAFX.H
C:\USERS\USER\ONEDRIVE\바탕 화면\3학년2학기\GSE\GSE\SIMPLEGAME\SIMPLEGAME\TARGETVER.H
C:\PROGRAM FILES (X86)\WINDOWS KITS\10\INCLUDE\10.0.22621.0\SHARED\SDKDDKVER.H
C:\PROGRAM FILES (X86)\WINDOWS KITS\10\INCLUDE\10.0.22621.0\UCRT\STDIO.H
C:\PROGRAM FILES (X86)\WINDOWS KITS\10\INCLUDE\10.0.22621.0\UCRT\CORECRT.H
C:\PROGRAM FILES (X86)\MICROSOFT VISUAL STUDIO\2019\COMMUNITY\VC\TOOLS\MSVC\14.29.30133\INCLUDE\VCRUNTIME.H
C:\PROGRAM FILES (X86)\MICROSOFT VISUAL STUDIO\2019\COMMUNITY\VC\TOOLS\MSVC\14.29.30133\INCLUDE\SAL.H
C:\PROGRAM FILES (X86)\MICROSOFT VISUAL STUDIO\2019\COMMUNITY\VC\TOOLS\MSVC\14.29.30133\INCLUDE\CONCURRENCYSAL.H
C:\PROGRAM FILES (X86)\MICROSOFT VISUAL STUDIO\2019\COMMUNITY\VC\TOOLS\MSVC\14.29.30133\INCLUDE\VADEFS.H
C:\PROGRAM FILES (X86)\WINDOWS KITS\10\INCLUDE\10.0.22621.0\UCRT\CORECRT_WSTDIO.H
C:\PROGRAM FILES (X86)\WINDOWS KITS\10\INCLUDE\10.0.22621.0\UCRT\CORECRT_STDIO_CONFIG.H
C:\PROGRAM FILES (X86)\WINDOWS KITS\10\INCLUDE\10.0.22621.0\UCRT\TCHAR.H
C:\PROGRAM FILES (X86)\WINDOWS KITS\10\INCLUDE\10.0.22621.0\UCRT\WCHAR.H
C:\PROGRAM FILES (X86)\WINDOWS KITS\10\INCLUDE\10.0.22621.0\UCRT\CORECRT_MEMCPY_S.H
C:\PROGRAM FILES (X86)\WINDOWS KITS\10\INCLUDE\10.0.22621.0\UCRT\ERRNO.H
C:\PROGRAM FILES (X86)\MICROSOFT VISUAL STUDIO\2019\COMMUNITY\VC\TOOLS\MSVC\14.29.30133\INCLUDE\VCRUNTIME_STRING.H
C:\PROGRAM FILES (X86)\WINDOWS KITS\10\INCLUDE\10.0.22621.0\UCRT\CORECRT_WCONIO.H
C:\PROGRAM FILES (X86)\WINDOWS KITS\10\INCLUDE\10.0.22621.0\UCRT\CORECRT_WCTYPE.H
C:\PROGRAM FILES (X86)\WINDOWS KITS\10\INCLUDE\10.0.22621.0\UCRT\CORECRT_WDIRECT.H
C:\PROGRAM FILES (X86)\WINDOWS KITS\10\INCLUDE\10.0.22621.0\UCRT\CORECRT_WIO.H
C:\PROGRAM FILES (X86)\WINDOWS KITS\10\INCLUDE\10.0.22621.0\UCRT\CORECRT_SHARE.H
C:\PROGRAM FILES (X86)\WINDOWS KITS\10\INCLUDE\10.0.22621.0\UCRT\CORECRT_WPROCESS.H
C:\PROGRAM FILES (X86)\WINDOWS KITS\10\INCLUDE\10.0.22621.0\UCRT\CORECRT_WSTDLIB.H
C:\PROGRAM FILES (X86)\WINDOWS KITS\10\INCLUDE\10.0.22621.0\UCRT\CORECRT_WSTRING.H
C:\PROGRAM FILES (X86)\WINDOWS KITS\10\INCLUDE\10.0.22621.0\UCRT\CORECRT_WTIME.H
C:\PROGRAM FILES (X86)\WINDOWS KITS\10\INCLUDE\10.0.22621.0\UCRT\SYS\STAT.H
C:\PROGRAM FILES (X86)\WINDOWS KITS\10\INCLUDE\10.0.22621.0\UCRT\SYS\TYPES.H
C:\PROGRAM FILES (X86)\WINDOWS KITS\10\INCLUDE\10.0.22621.0\UCRT\MATH.H
C:\PROGRAM FILES (X86)\WINDOWS KITS\10\INCLUDE\10.0.22621.0\UCRT\CORECRT_MATH.H
C:\PROGRAM FILES (X86)\MICROSOFT VISUAL STUDIO\2019\COMMUNITY\VC\TOOLS\MSVC\14.29.30133\INCLUDE\IOSTREAM
C:\PROGRAM FILES (X86)\MICROSOFT VISUAL STUDIO\2019\COMMUNITY\VC\TOOLS\MSVC\14.29.30133\INCLUDE\YVALS_CORE.H
C:\PROGRAM FILES (X86)\MICROSOFT VISUAL STUDIO\2019\COMMUNITY\VC\TOOLS\MSVC\14.29.30133\INCLUDE\XKEYCHECK.H
C:\PROGRAM FILES (X86)\MICROSOFT VISUAL STUDIO\2019\COMMUNITY\VC\TOOLS\MSVC\14.29.30133\INCLUDE\ISTREAM
C:\PROGRAM FILES (X86)\MICROSOFT VISUAL STUDIO\2019\COMMUNITY\VC\TOOLS\MSVC\14.29.30133\INCLUDE\OSTREAM
C:\PROGRAM FILES (X86)\MICROSOFT VISUAL STUDIO\2019\COMMUNITY\VC\TOOLS\MSVC\14.29.30133\INCLUDE\IOS
C:\PROGRAM FILES (X86)\MICROSOFT VISUAL STUDIO\2019\COMMUNITY\VC\TOOLS\MSVC\14.29.30133\INCLUDE\XLOCNUM
C:\PROGRAM FILES (X86)\MICROSOFT VISUAL STUDIO\2019\COMMUNITY\VC\TOOLS\MSVC\14.29.30133\INCLUDE\CLIMITS
C:\PROGRAM FILES (X86)\MICROSOFT VISUAL STUDIO\2019\COMMUNITY\VC\TOOLS\MSVC\14.29.30133\INCLUDE\LIMITS.H
C:\PROGRAM FILES (X86)\MICROSOFT VISUAL STUDIO\2019\COMMUNITY\VC\TOOLS\MSVC\14.29.30133\INCLUDE\CMATH
C:\PROGRAM FILES (X86)\MICROSOFT VISUAL STUDIO\2019\COMMUNITY\VC\TOOLS\MSVC\14.29.30133\INCLUDE\YVALS.H
C:\PROGRAM FILES (X86)\WINDOWS KITS\10\INCLUDE\10.0.22621.0\UCRT\CRTDBG.H
C:\PROGRAM FILES (X86)\MICROSOFT VISUAL STUDIO\2019\COMMUNITY\VC\TOOLS\MSVC\14.29.30133\INCLUDE\VCRUNTIME_NEW_DEBUG.H
C:\PROGRAM FILES (X86)\MICROSOFT VISUAL STUDIO\2019\COMMUNITY\VC\TOOLS\MSVC\14.29.30133\INCLUDE\VCRUNTIME_NEW.H
C:\PROGRAM FILES (X86)\MICROSOFT VISUAL STUDIO\2019\COMMUNITY\VC\TOOLS\MSVC\14.29.30133\INCLUDE\CRTDEFS.H
C:\PROGRAM FILES (X86)\MICROSOFT VISUAL STUDIO\2019\COMMUNITY\VC\TOOLS\MSVC\14.29.30133\INCLUDE\USE_ANSI.H
C:\PROGRAM FILES (X86)\MICROSOFT VISUAL STUDIO\2019\COMMUNITY\VC\TOOLS\MSVC\14.29.30133\INCLUDE\CSTDLIB
C:\PROGRAM FILES (X86)\WINDOWS KITS\10\INCLUDE\10.0.22621.0\UCRT\STDLIB.H
C:\PROGRAM FILES (X86)\WINDOWS KITS\10\INCLUDE\10.0.22621.0\UCRT\CORECRT_MALLOC.H
C:\PROGRAM FILES (X86)\WINDOWS KITS\10\INCLUDE\10.0.22621.0\UCRT\CORECRT_SEARCH.H
C:\PROGRAM FILES (X86)\WINDOWS KITS\10\INCLUDE\10.0.22621.0\UCRT\STDDEF.H
C:\PROGRAM FILES (X86)\MICROSOFT VISUAL STUDIO\2019\COMMUNITY\VC\TOOLS\MSVC\14.29.30133\INCLUDE\XTR1COMMON
C:\PROGRAM FILES (X86)\MICROSOFT VISUAL STUDIO\2019\COMMUNITY\VC\TOOLS\MSVC\14.29.30133\INCLUDE\INTRIN0.H
C:\PROGRAM FILES (X86)\MICROSOFT VISUAL STUDIO\2019\COMMUNITY\VC\TOOLS\MSVC\14.29.30133\INCLUDE\INTRIN0.INL.H
C:\PROGRAM FILES (X86)\MICROSOFT VISUAL STUDIO\2019\COMMUNITY\VC\TOOLS\MSVC\14.29.30133\INCLUDE\CSTDIO
C:\PROGRAM FILES (X86)\MICROSOFT VISUAL STUDIO\2019\COMMUNITY\VC\TOOLS\MSVC\14.29.30133\INCLUDE\ITERATOR
C:\PROGRAM FILES (X86)\MICROSOFT VISUAL STUDIO\2019\COMMUNITY\VC\TOOLS\MSVC\14.29.30133\INCLUDE\IOSFWD
C:\PROGRAM FILES (X86)\MICROSOFT VISUAL STUDIO\2019\COMMUNITY\VC\TOOLS\MSVC\14.29.30133\INCLUDE\CSTRING
C:\PROGRAM FILES (X86)\WINDOWS KITS\10\INCLUDE\10.0.22621.0\UCRT\STRING.H
C:\PROGRAM FILES (X86)\WINDOWS KITS\10\INCLUDE\10.0.22621.0\UCRT\CORECRT_MEMORY.H
C:\PROGRAM FILES (X86)\MICROSOFT VISUAL STUDIO\2019\COMMUNITY\VC\TOOLS\MSVC\14.29.30133\INCLUDE\CWCHAR
C:\PROGRAM FILES (X86)\MICROSOFT VISUAL STUDIO\2019\COMMUNITY\VC\TOOLS\MSVC\14.29.30133\INCLUDE\XSTDDEF
C:\PROGRAM FILES (X86)\MICROSOFT VISUAL STUDIO\2019\COMMUNITY\VC\TOOLS\MSVC\14.29.30133\INCLUDE\CSTDDEF
C:\PROGRAM FILES (X86)\MICROSOFT VISUAL STUDIO\2019\COMMUNITY\VC\TOOLS\MSVC\14.29.30133\INCLUDE\INITIALIZER_LIST
C:\PROGRAM FILES (X86)\MICROSOFT VISUAL STUDIO\2019\COMMUNITY\VC\TOOLS\MSVC\14.29.30133\INCLUDE\XUTILITY
C:\PROGRAM FILES (X86)\MICROSOFT VISUAL STUDIO\2019\COMMUNITY\VC\TOOLS\MSVC\14.29.30133\INCLUDE\UTILITY
C:\PROGRAM FILES (X86)\MICROSOFT VISUAL STUDIO\2019\COMMUNITY\VC\TOOLS\MSVC\14.29.30133\INCLUDE\TYPE_TRAITS
C:\PROGRAM FILES (X86)\MICROSOFT VISUAL STUDIO\2019\COMMUNITY\VC\TOOLS\MSVC\14.29.30133\INCLUDE\CSTDINT
C:\PROGRAM FILES (X86)\MICROSOFT VISUAL STUDIO\2019\COMMUNITY\VC\TOOLS\MSVC\14.29.30133\INCLUDE\STDINT.H
C:\PROGRAM FILES (X86)\MICROSOFT VISUAL STUDIO\2019\COMMUNITY\VC\TOOLS\MSVC\14.29.30133\INCLUDE\STREAMBUF
C:\PROGRAM FILES (X86)\MICROSOFT VISUAL STUDIO\2019\COMMUNITY\VC\TOOLS\MSVC\14.29.30133\INCLUDE\XIOSBASE
C:\PROGRAM FILES (X86)\WINDOWS KITS\10\INCLUDE\10.0.22621.0\UCRT\SHARE.H
C:\PROGRAM FILES (X86)\MICROSOFT VISUAL STUDIO\2019\COMMUNITY\VC\TOOLS\MSVC\14.29.30133\INCLUDE\SYSTEM_ERROR
C:\PROGRAM FILES (X86)\MICROSOFT VISUAL STUDIO\2019\COMMUNITY\VC\TOOLS\MSVC\14.29.30133\INCLUDE\__MSVC_SYSTEM_ERROR_ABI.HPP
C:\PROGRAM FILES (X86)\MICROSOFT VISUAL STUDIO\2019\COMMUNITY\VC\TOOLS\MSVC\14.29.30133\INCLUDE\CERRNO
C:\PROGRAM FILES (X86)\MICROSOFT VISUAL STUDIO\2019\COMMUNITY\VC\TOOLS\MSVC\14.29.30133\INCLUDE\STDEXCEPT
C:\PROGRAM FILES (X86)\MICROSOFT VISUAL STUDIO\2019\COMMUNITY\VC\TOOLS\MSVC\14.29.30133\INCLUDE\EXCEPTION
C:\PROGRAM FILES (X86)\WINDOWS KITS\10\INCLUDE\10.0.22621.0\UCRT\MALLOC.H
C:\PROGRAM FILES (X86)\MICROSOFT VISUAL STUDIO\2019\COMMUNITY\VC\TOOLS\MSVC\14.29.30133\INCLUDE\VCRUNTIME_EXCEPTION.H
C:\PROGRAM FILES (X86)\MICROSOFT VISUAL STUDIO\2019\COMMUNITY\VC\TOOLS\MSVC\14.29.30133\INCLUDE\EH.H
C:\PROGRAM FILES (X86)\WINDOWS KITS\10\INCLUDE\10.0.22621.0\UCRT\CORECRT_TERMINATE.H
C:\PROGRAM FILES (X86)\MICROSOFT VISUAL STUDIO\2019\COMMUNITY\VC\TOOLS\MSVC\14.29.30133\INCLUDE\XSTRING
C:\PROGRAM FILES (X86)\MICROSOFT VISUAL STUDIO\2019\COMMUNITY\VC\TOOLS\MSVC\14.29.30133\INCLUDE\XMEMORY
C:\PROGRAM FILES (X86)\MICROSOFT VISUAL STUDIO\2019\COMMUNITY\VC\TOOLS\MSVC\14.29.30133\INCLUDE\LIMITS
C:\PROGRAM FILES (X86)\MICROSOFT VISUAL STUDIO\2019\COMMUNITY\VC\TOOLS\MSVC\14.29.30133\INCLUDE\CFLOAT
C:\PROGRAM FILES (X86)\WINDOWS KITS\10\INCLUDE\10.0.22621.0\UCRT\FLOAT.H
C:\PROGRAM FILES (X86)\MICROSOFT VISUAL STUDIO\2019\COMMUNITY\VC\TOOLS\MSVC\14.29.30133\INCLUDE\ISA_AVAILABILITY.H
C:\PROGRAM FILES (X86)\MICROSOFT VISUAL STUDIO\2019\COMMUNITY\VC\TOOLS\MSVC\14.29.30133\INCLUDE\NEW
C:\PROGRAM FILES (X86)\MICROSOFT VISUAL STUDIO\2019\COMMUNITY\VC\TOOLS\MSVC\14.29.30133\INCLUDE\XATOMIC.H
C:\PROGRAM FILES (X86)\MICROSOFT VISUAL STUDIO\2019\COMMUNITY\VC\TOOLS\MSVC\14.29.30133\INCLUDE\XCALL_ONCE.H
C:\PROGRAM FILES (X86)\MICROSOFT VISUAL STUDIO\2019\COMMUNITY\VC\TOOLS\MSVC\14.29.30133\INCLUDE\XERRC.H
C:\PROGRAM FILES (X86)\MICROSOFT VISUAL STUDIO\2019\COMMUNITY\VC\TOOLS\MSVC\14.29.30133\INCLUDE\ATOMIC
C:\PROGRAM FILES (X86)\MICROSOFT VISUAL STUDIO\2019\COMMUNITY\VC\TOOLS\MSVC\14.29.30133\INCLUDE\XTHREADS.H
C:\PROGRAM FILES (X86)\MICROSOFT VISUAL STUDIO\2019\COMMUNITY\VC\TOOLS\MSVC\14.29.30133\INCLUDE\XTIMEC.H
C:\PROGRAM FILES (X86)\MICROSOFT VISUAL STUDIO\2019\COMMUNITY\VC\TOOLS\MSVC\14.29.30133\INCLUDE\CTIME
C:\PROGRAM FILES (X86)\WINDOWS KITS\10\INCLUDE\10.0.22621.0\UCRT\TIME.H
C:\PROGRAM FILES (X86)\MICROSOFT VISUAL STUDIO\2019\COMMUNITY\VC\TOOLS\MSVC\14.29.30133\INCLUDE\XLOCALE
C:\PROGRAM FILES (X86)\MICROSOFT VISUAL STUDIO\2019\COMMUNITY\VC\TOOLS\MSVC\14.29.30133\INCLUDE\MEMORY
C:\PROGRAM FILES (X86)\MICROSOFT VISUAL STUDIO\2019\COMMUNITY\VC\TOOLS\MSVC\14.29.30133\INCLUDE\TYPEINFO
C:\PROGRAM FILES (X86)\MICROSOFT VISUAL STUDIO\2019\COMMUNITY\VC\TOOLS\MSVC\14.29.30133\INCLUDE\VCRUNTIME_TYPEINFO.H
C:\PROGRAM FILES (X86)\MICROSOFT VISUAL STUDIO\2019\COMMUNITY\VC\TOOLS\MSVC\14.29.30133\INCLUDE\XFACET
C:\PROGRAM FILES (X86)\MICROSOFT VISUAL STUDIO\2019\COMMUNITY\VC\TOOLS\MSVC\14.29.30133\INCLUDE\XLOCINFO
C:\PROGRAM FILES (X86)\MICROSOFT VISUAL STUDIO\2019\COMMUNITY\VC\TOOLS\MSVC\14.29.30133\INCLUDE\XLOCINFO.H
C:\PROGRAM FILES (X86)\MICROSOFT VISUAL STUDIO\2019\COMMUNITY\VC\TOOLS\MSVC\14.29.30133\INCLUDE\CCTYPE
C:\PROGRAM FILES (X86)\WINDOWS KITS\10\INCLUDE\10.0.22621.0\UCRT\CTYPE.H
C:\PROGRAM FILES (X86)\MICROSOFT VISUAL STUDIO\2019\COMMUNITY\VC\TOOLS\MSVC\14.29.30133\INCLUDE\CLOCALE
C:\PROGRAM FILES (X86)\WINDOWS KITS\10\INCLUDE\10.0.22621.0\UCRT\LOCALE.H
C:\PROGRAM FILES (X86)\MICROSOFT VISUAL STUDIO\2019\COMMUNITY\VC\TOOLS\MSVC\14.29.30133\INCLUDE\CASSERT
C:\PROGRAM FILES (X86)\WINDOWS KITS\10\INCLUDE\10.0.22621.0\UCRT\ASSERT.H
C:\PROGRAM FILES (X86)\MICROSOFT VISUAL STUDIO\2019\COMMUNITY\VC\TOOLS\MSVC\14.29.30133\INCLUDE\RANDOM
C:\PROGRAM FILES (X86)\MICROSOFT VISUAL STUDIO\2019\COMMUNITY\VC\TOOLS\MSVC\14.29.30133\INCLUDE\ALGORITHM
C:\PROGRAM FILES (X86)\MICROSOFT VISUAL STUDIO\2019\COMMUNITY\VC\TOOLS\MSVC\14.29.30133\INCLUDE\VECTOR
C:\PROGRAM FILES (X86)\MICROSOFT VISUAL STUDIO\2019\COMMUNITY\VC\TOOLS\MSVC\14.29.30133\INCLUDE\XBIT_OPS.H
^C:\USERS\USER\ONEDRIVE\바탕 화면\3학년2학기\GSE\GSE\SIMPLEGAME\SIMPLEGAME\LOADPNG.CPP
C:\USERS\USER\ONEDRIVE\바탕 화면\3학년2학기\GSE\GSE\SIMPLEGAME\SIMPLEGAME\X64\DEBUG\SIMPLEGAME.PCH
C:\USERS\USER\ONEDRIVE\바탕 화면\3학년2학기\GSE\GSE\SIMPLEGAME\SIMPLEGAME\LOADPNG.H
C:\PROGRAM FILES (X86)\MICROSOFT VISUAL STUDIO\2019\COMMUNITY\VC\TOOLS\MSVC\14.29.30133\INCLUDE\STRING
^C:\USERS\USER\ONEDRIVE\바탕 화면\3학년2학기\GSE\GSE\SIMPLEGAME\SIMPLEGAME\RENDERER.CPP
C:\USERS\USER\ONEDRIVE\바탕 화면\3학년2학기\GSE\GSE\SIMPLEGAME\SIMPLEGAME\X64\DEBUG\SIMPLEGAME.PCH
C:\USERS\USER\ONEDRIVE\바탕 화면\3학년2학기\GSE\GSE\SIMPLEGAME\SIMPLEGAME\RENDERER.H
C:\PROGRAM FILES (X86)\MICROSOFT VISUAL STUDIO\2019\COMMUNITY\VC\TOOLS\MSVC\14.29.30133\INCLUDE\STRING
C:\PROGRAM FILES (X86)\MICROSOFT VISUAL STUDIO\2019\COMMUNITY\VC\TOOLS\MSVC\14.29.30133\INCLUDE\FSTREAM
C:\PROGRAM FILES (X86)\WINDOWS KITS\10\INCLUDE\10.0.22621.0\UCRT\ASSERT.H
C:\USERS\USER\ONEDRIVE\바탕 화면\3학년2학기\GSE\GSE\SIMPLEGAME\SIMPLEGAME\DEPENDENCIES\GLEW.H
C:\PROGRAM FILES (X86)\WINDOWS KITS\10\INCLUDE\10.0.22621.0\UM\GL\GLU.H
C:\PROGRAM FILES (X86)\WINDOWS KITS\10\INCLUDE\10.0.22621.0\SHARED\WINAPIFAMILY.H
C:\PROGRAM FILES (X86)\WINDOWS KITS\10\INCLUDE\10.0.22621.0\SHARED\WINPACKAGEFAMILY.H
C:\PROGRAM FILES (X86)\WINDOWS KITS\10\INCLUDE\10.0.22621.0\UM\GL\GL.H
C:\USERS\USER\ONEDRIVE\바탕 화면\3학년2학기\GSE\GSE\SIMPLEGAME\SIMPLEGAME\DEPENDENCIES\GLM\GLM.HPP
C:\USERS\USER\ONEDRIVE\바탕 화면\3학년2학기\GSE\GSE\SIMPLEGAME\SIMPLEGAME\DEPENDENCIES\GLM\DETAIL\_FIXES.HPP
C:\PROGRAM FILES (X86)\MICROSOFT VISUAL STUDIO\2019\COMMUNITY\VC\TOOLS\MSVC\14.29.30133\INCLUDE\CASSERT
C:\USERS\USER\ONEDRIVE\바탕 화면\3학년2학기\GSE\GSE\SIMPLEGAME\SIMPLEGAME\DEPENDENCIES\GLM\FWD.HPP
C:\USERS\USER\ONEDRIVE\바탕 화면\3학년2학기\GSE\GSE\SIMPLEGAME\SIMPLEGAME\DEPENDENCIES\GLM\DETAIL\TYPE_INT.HPP
C:\USERS\USER\ONEDRIVE\바탕 화면\3학년2학기\GSE\GSE\SIMPLEGAME\SIMPLEGAME\DEPENDENCIES\GLM\DETAIL\SETUP.HPP
C:\USERS\USER\ONEDRIVE\바탕 화면\3학년2학기\GSE\GSE\SIMPLEGAME\SIMPLEGAME\DEPENDENCIES\GLM\SIMD\PLATFORM.H
C:\PROGRAM FILES (X86)\MICROSOFT VISUAL STUDIO\2019\COMMUNITY\VC\TOOLS\MSVC\14.29.30133\INCLUDE\EMMINTRIN.H
C:\PROGRAM FILES (X86)\MICROSOFT VISUAL STUDIO\2019\COMMUNITY\VC\TOOLS\MSVC\14.29.30133\INCLUDE\XMMINTRIN.H
C:\PROGRAM FILES (X86)\MICROSOFT VISUAL STUDIO\2019\COMMUNITY\VC\TOOLS\MSVC\14.29.30133\INCLUDE\MMINTRIN.H
C:\USERS\USER\ONEDRIVE\바탕 화면\3학년2학기\GSE\GSE\SIMPLEGAME\SIMPLEGAME\DEPENDENCIES\GLM\DETAIL\TYPE_FLOAT.HPP
C:\USERS\USER\ONEDRIVE\바탕 화면\3학년2학기\GSE\GSE\SIMPLEGAME\SIMPLEGAME\DEPENDENCIES\GLM\DETAIL\TYPE_VEC.HPP
C:\USERS\USER\ONEDRIVE\바탕 화면\3학년2학기\GSE\GSE\SIMPLEGAME\SIMPLEGAME\DEPENDENCIES\GLM\DETAIL\PRECISION.HPP
C:\USERS\USER\ONEDRIVE\바탕 화면\3학년2학기\GSE\GSE\SIMPLEGAME\SIMPLEGAME\DEPENDENCIES\GLM\DETAIL\TYPE_MAT.HPP
C:\USERS\USER\ONEDRIVE\바탕 화면\3학년2학기\GSE\GSE\SIMPLEGAME\SIMPLEGAME\DEPENDENCIES\GLM\VEC2.HPP
C:\USERS\USER\ONEDRIVE\바탕 화면\3학년2학기\GSE\GSE\SIMPLEGAME\SIMPLEGAME\DEPENDENCIES\GLM\DETAIL\TYPE_VEC2.HPP
C:\USERS\USER\ONEDRIVE\바탕 화면\3학년2학기\GSE\GSE\SIMPLEGAME\SIMPLEGAME\DEPENDENCIES\GLM\DETAIL\TYPE_VEC2.INL
C:\USERS\USER\ONEDRIVE\바탕 화면\3학년2학기\GSE\GSE\SIMPLEGAME\SIMPLEGAME\DEPENDENCIES\GLM\VEC3.HPP
C:\USERS\USER\ONEDRIVE\바탕 화면\3학년2학기\GSE\GSE\SIMPLEGAME\SIMPLEGAME\DEPENDENCIES\GLM\DETAIL\TYPE_VEC3.HPP
C:\USERS\USER\ONEDRIVE\바탕 화면\3학년2학기\GSE\GSE\SIMPLEGAME\SIMPLEGAME\DEPENDENCIES\GLM\DETAIL\TYPE_VEC3.INL
C:\USERS\USER\ONEDRIVE\바탕 화면\3학년2학기\GSE\GSE\SIMPLEGAME\SIMPLEGAME\DEPENDENCIES\GLM\VEC4.HPP
C:\USERS\USER\ONEDRIVE\바탕 화면\3학년2학기\GSE\GSE\SIMPLEGAME\SIMPLEGAME\DEPENDENCIES\GLM\DETAIL\TYPE_VEC4.HPP
C:\USERS\USER\ONEDRIVE\바탕 화면\3학년2학기\GSE\GSE\SIMPLEGAME\SIMPLEGAME\DEPENDENCIES\GLM\DETAIL\TYPE_VEC4.INL
C:\USERS\USER\ONEDRIVE\바탕 화면\3학년2학기\GSE\GSE\SIMPLEGAME\SIMPLEGAME\DEPENDENCIES\GLM\DETAIL\TYPE_VEC4_SIMD.INL
C:\USERS\USER\ONEDRIVE\바탕 화면\3학년2학기\GSE\GSE\SIMPLEGAME\SIMPLEGAME\DEPENDENCIES\GLM\MAT2X2.HPP
C:\USERS\USER\ONEDRIVE\바탕 화면\3학년2학기\GSE\GSE\SIMPLEGAME\SIMPLEGAME\DEPENDENCIES\GLM\DETAIL\TYPE_MAT2X2.HPP
C:\USERS\USER\ONEDRIVE\바탕 화면\3학년2학기\GSE\GSE\SIMPLEGAME\SIMPLEGAME\DEPENDENCIES\GLM\DETAIL\TYPE_MAT2X2.INL
C:\USERS\USER\ONEDRIVE\바탕 화면\3학년2학기\GSE\GSE\SIMPLEGAME\SIMPLEGAME\DEPENDENCIES\GLM\DETAIL\FUNC_MATRIX.HPP
C:\USERS\USER\ONEDRIVE\바탕 화면\3학년2학기\GSE\GSE\SIMPLEGAME\SIMPLEGAME\DEPENDENCIES\GLM\MAT2X3.HPP
C:\USERS\USER\ONEDRIVE\바탕 화면\3학년2학기\GSE\GSE\SIMPLEGAME\SIMPLEGAME\DEPENDENCIES\GLM\DETAIL\TYPE_MAT2X3.HPP
C:\USERS\USER\ONEDRIVE\바탕 화면\3학년2학기\GSE\GSE\SIMPLEGAME\SIMPLEGAME\DEPENDENCIES\GLM\DETAIL\TYPE_MAT2X3.INL
C:\USERS\USER\ONEDRIVE\바탕 화면\3학년2학기\GSE\GSE\SIMPLEGAME\SIMPLEGAME\DEPENDENCIES\GLM\MAT2X4.HPP
C:\USERS\USER\ONEDRIVE\바탕 화면\3학년2학기\GSE\GSE\SIMPLEGAME\SIMPLEGAME\DEPENDENCIES\GLM\DETAIL\TYPE_MAT2X4.HPP
C:\USERS\USER\ONEDRIVE\바탕 화면\3학년2학기\GSE\GSE\SIMPLEGAME\SIMPLEGAME\DEPENDENCIES\GLM\DETAIL\TYPE_MAT2X4.INL
C:\USERS\USER\ONEDRIVE\바탕 화면\3학년2학기\GSE\GSE\SIMPLEGAME\SIMPLEGAME\DEPENDENCIES\GLM\MAT3X2.HPP
C:\USERS\USER\ONEDRIVE\바탕 화면\3학년2학기\GSE\GSE\SIMPLEGAME\SIMPLEGAME\DEPENDENCIES\GLM\DETAIL\TYPE_MAT3X2.HPP
C:\USERS\USER\ONEDRIVE\바탕 화면\3학년2학기\GSE\GSE\SIMPLEGAME\SIMPLEGAME\DEPENDENCIES\GLM\DETAIL\TYPE_MAT3X2.INL
C:\USERS\USER\ONEDRIVE\바탕 화면\3학년2학기\GSE\GSE\SIMPLEGAME\SIMPLEGAME\DEPENDENCIES\GLM\MAT3X3.HPP
C:\USERS\USER\ONEDRIVE\바탕 화면\3학년2학기\GSE\GSE\SIMPLEGAME\SIMPLEGAME\DEPENDENCIES\GLM\DETAIL\TYPE_MAT3X3.HPP
C:\USERS\USER\ONEDRIVE\바탕 화면\3학년2학기\GSE\GSE\SIMPLEGAME\SIMPLEGAME\DEPENDENCIES\GLM\DETAIL\TYPE_MAT3X3.INL
C:\USERS\USER\ONEDRIVE\바탕 화면\3학년2학기\GSE\GSE\SIMPLEGAME\SIMPLEGAME\DEPENDENCIES\GLM\MAT3X4.HPP
C:\USERS\USER\ONEDRIVE\바탕 화면\3학년2학기\GSE\GSE\SIMPLEGAME\SIMPLEGAME\DEPENDENCIES\GLM\DETAIL\TYPE_MAT3X4.HPP
C:\USERS\USER\ONEDRIVE\바탕 화면\3학년2학기\GSE\GSE\SIMPLEGAME\SIMPLEGAME\DEPENDENCIES\GLM\DETAIL\TYPE_MAT3X4.INL
C:\USERS\USER\ONEDRIVE\바탕 화면\3학년2학기\GSE\GSE\SIMPLEGAME\SIMPLEGAME\DEPENDENCIES\GLM\MAT4X2.HPP
C:\USERS\USER\ONEDRIVE\바탕 화면\3학년2학기\GSE\GSE\SIMPLEGAME\SIMPLEGAME\DEPENDENCIES\GLM\DETAIL\TYPE_MAT4X2.HPP
C:\USERS\USER\ONEDRIVE\바탕 화면\3학년2학기\GSE\GSE\SIMPLEGAME\SIMPLEGAME\DEPENDENCIES\GLM\DETAIL\TYPE_MAT4X2.INL
C:\USERS\USER\ONEDRIVE\바탕 화면\3학년2학기\GSE\GSE\SIMPLEGAME\SIMPLEGAME\DEPENDENCIES\GLM\MAT4X3.HPP
C:\USERS\USER\ONEDRIVE\바탕 화면\3학년2학기\GSE\GSE\SIMPLEGAME\SIMPLEGAME\DEPENDENCIES\GLM\DETAIL\TYPE_MAT4X3.HPP
C:\USERS\USER\ONEDRIVE\바탕 화면\3학년2학기\GSE\GSE\SIMPLEGAME\SIMPLEGAME\DEPENDENCIES\GLM\DETAIL\TYPE_MAT4X3.INL
C:\USERS\USER\ONEDRIVE\바탕 화면\3학년2학기\GSE\GSE\SIMPLEGAME\SIMPLEGAME\DEPENDENCIES\GLM\MAT4X4.HPP
C:\USERS\USER\ONEDRIVE\바탕 화면\3학년2학기\GSE\GSE\SIMPLEGAME\SIMPLEGAME\DEPENDENCIES\GLM\DETAIL\TYPE_MAT4X4.HPP
C:\USERS\USER\ONEDRIVE\바탕 화면\3학년2학기\GSE\GSE\SIMPLEGAME\SIMPLEGAME\DEPENDENCIES\GLM\DETAIL\TYPE_MAT4X4.INL
C:\USERS\USER\ONEDRIVE\바탕 화면\3학년2학기\GSE\GSE\SIMPLEGAME\SIMPLEGAME\DEPENDENCIES\GLM\DETAIL\TYPE_MAT4X4_SIMD.INL
C:\USERS\USER\ONEDRIVE\바탕 화면\3학년2학기\GSE\GSE\SIMPLEGAME\SIMPLEGAME\DEPENDENCIES\GLM\DETAIL\FUNC_MATRIX.INL
C:\USERS\USER\ONEDRIVE\바탕 화면\3학년2학기\GSE\GSE\SIMPLEGAME\SIMPLEGAME\DEPENDENCIES\GLM\GEOMETRIC.HPP
C:\USERS\USER\ONEDRIVE\바탕 화면\3학년2학기\GSE\GSE\SIMPLEGAME\SIMPLEGAME\DEPENDENCIES\GLM\DETAIL\FUNC_GEOMETRIC.HPP
C:\USERS\USER\ONEDRIVE\바탕 화면\3학년2학기\GSE\GSE\SIMPLEGAME\SIMPLEGAME\DEPENDENCIES\GLM\DETAIL\FUNC_GEOMETRIC.INL
C:\USERS\USER\ONEDRIVE\바탕 화면\3학년2학기\GSE\GSE\SIMPLEGAME\SIMPLEGAME\DEPENDENCIES\GLM\DETAIL\FUNC_EXPONENTIAL.HPP
C:\USERS\USER\ONEDRIVE\바탕 화면\3학년2학기\GSE\GSE\SIMPLEGAME\SIMPLEGAME\DEPENDENCIES\GLM\DETAIL\TYPE_VEC1.HPP
C:\USERS\USER\ONEDRIVE\바탕 화면\3학년2학기\GSE\GSE\SIMPLEGAME\SIMPLEGAME\DEPENDENCIES\GLM\DETAIL\TYPE_VEC1.INL
C:\USERS\USER\ONEDRIVE\바탕 화면\3학년2학기\GSE\GSE\SIMPLEGAME\SIMPLEGAME\DEPENDENCIES\GLM\DETAIL\FUNC_EXPONENTIAL.INL
C:\USERS\USER\ONEDRIVE\바탕 화면\3학년2학기\GSE\GSE\SIMPLEGAME\SIMPLEGAME\DEPENDENCIES\GLM\DETAIL\FUNC_VECTOR_RELATIONAL.HPP
C:\USERS\USER\ONEDRIVE\바탕 화면\3학년2학기\GSE\GSE\SIMPLEGAME\SIMPLEGAME\DEPENDENCIES\GLM\DETAIL\FUNC_VECTOR_RELATIONAL.INL
C:\USERS\USER\ONEDRIVE\바탕 화면\3학년2학기\GSE\GSE\SIMPLEGAME\SIMPLEGAME\DEPENDENCIES\GLM\DETAIL\FUNC_VECTOR_RELATIONAL_SIMD.INL
C:\USERS\USER\ONEDRIVE\바탕 화면\3학년2학기\GSE\GSE\SIMPLEGAME\SIMPLEGAME\DEPENDENCIES\GLM\DETAIL\_VECTORIZE.HPP
C:\USERS\USER\ONEDRIVE\바탕 화면\3학년2학기\GSE\GSE\SIMPLEGAME\SIMPLEGAME\DEPENDENCIES\GLM\DETAIL\FUNC_EXPONENTIAL_SIMD.INL
C:\USERS\USER\ONEDRIVE\바탕 화면\3학년2학기\GSE\GSE\SIMPLEGAME\SIMPLEGAME\DEPENDENCIES\GLM\SIMD\EXPONENTIAL.H
C:\USERS\USER\ONEDRIVE\바탕 화면\3학년2학기\GSE\GSE\SIMPLEGAME\SIMPLEGAME\DEPENDENCIES\GLM\DETAIL\FUNC_COMMON.HPP
C:\USERS\USER\ONEDRIVE\바탕 화면\3학년2학기\GSE\GSE\SIMPLEGAME\SIMPLEGAME\DEPENDENCIES\GLM\DETAIL\FUNC_COMMON.INL
C:\USERS\USER\ONEDRIVE\바탕 화면\3학년2학기\GSE\GSE\SIMPLEGAME\SIMPLEGAME\DEPENDENCIES\GLM\DETAIL\FUNC_COMMON_SIMD.INL
C:\USERS\USER\ONEDRIVE\바탕 화면\3학년2학기\GSE\GSE\SIMPLEGAME\SIMPLEGAME\DEPENDENCIES\GLM\SIMD\COMMON.H
C:\PROGRAM FILES (X86)\MICROSOFT VISUAL STUDIO\2019\COMMUNITY\VC\TOOLS\MSVC\14.29.30133\INCLUDE\IMMINTRIN.H
C:\PROGRAM FILES (X86)\MICROSOFT VISUAL STUDIO\2019\COMMUNITY\VC\TOOLS\MSVC\14.29.30133\INCLUDE\WMMINTRIN.H
C:\PROGRAM FILES (X86)\MICROSOFT VISUAL STUDIO\2019\COMMUNITY\VC\TOOLS\MSVC\14.29.30133\INCLUDE\NMMINTRIN.H
C:\PROGRAM FILES (X86)\MICROSOFT VISUAL STUDIO\2019\COMMUNITY\VC\TOOLS\MSVC\14.29.30133\INCLUDE\SMMINTRIN.H
C:\PROGRAM FILES (X86)\MICROSOFT VISUAL STUDIO\2019\COMMUNITY\VC\TOOLS\MSVC\14.29.30133\INCLUDE\TMMINTRIN.H
C:\PROGRAM FILES (X86)\MICROSOFT VISUAL STUDIO\2019\COMMUNITY\VC\TOOLS\MSVC\14.29.30133\INCLUDE\PMMINTRIN.H
C:\PROGRAM FILES (X86)\MICROSOFT VISUAL STUDIO\2019\COMMUNITY\VC\TOOLS\MSVC\14.29.30133\INCLUDE\ZMMINTRIN.H
C:\USERS\USER\ONEDRIVE\바탕 화면\3학년2학기\GSE\GSE\SIMPLEGAME\SIMPLEGAME\DEPENDENCIES\GLM\DETAIL\FUNC_GEOMETRIC_SIMD.INL
C:\USERS\USER\ONEDRIVE\바탕 화면\3학년2학기\GSE\GSE\SIMPLEGAME\SIMPLEGAME\DEPENDENCIES\GLM\SIMD\GEOMETRIC.H
C:\USERS\USER\ONEDRIVE\바탕 화면\3학년2학기\GSE\GSE\SIMPLEGAME\SIMPLEGAME\DEPENDENCIES\GLM\DETAIL\FUNC_MATRIX_SIMD.INL
C:\USERS\USER\ONEDRIVE\바탕 화면\3학년2학기\GSE\GSE\SIMPLEGAME\SIMPLEGAME\DEPENDENCIES\GLM\SIMD\MATRIX.H
C:\USERS\USER\ONEDRIVE\바탕 화면\3학년2학기\GSE\GSE\SIMPLEGAME\SIMPLEGAME\DEPENDENCIES\GLM\TRIGONOMETRIC.HPP
C:\USERS\USER\ONEDRIVE\바탕 화면\3학년2학기\GSE\GSE\SIMPLEGAME\SIMPLEGAME\DEPENDENCIES\GLM\DETAIL\FUNC_TRIGONOMETRIC.HPP
C:\USERS\USER\ONEDRIVE\바탕 화면\3학년2학기\GSE\GSE\SIMPLEGAME\SIMPLEGAME\DEPENDENCIES\GLM\DETAIL\FUNC_TRIGONOMETRIC.INL
C:\USERS\USER\ONEDRIVE\바탕 화면\3학년2학기\GSE\GSE\SIMPLEGAME\SIMPLEGAME\DEPENDENCIES\GLM\DETAIL\FUNC_TRIGONOMETRIC_SIMD.INL
C:\USERS\USER\ONEDRIVE\바탕 화면\3학년2학기\GSE\GSE\SIMPLEGAME\SIMPLEGAME\DEPENDENCIES\GLM\EXPONENTIAL.HPP
C:\USERS\USER\ONEDRIVE\바탕 화면\3학년2학기\GSE\GSE\SIMPLEGAME\SIMPLEGAME\DEPENDENCIES\GLM\COMMON.HPP
C:\USERS\USER\ONEDRIVE\바탕 화면\3학년2학기\GSE\GSE\SIMPLEGAME\SIMPLEGAME\DEPENDENCIES\GLM\PACKING.HPP
C:\USERS\USER\ONEDRIVE\바탕 화면\3학년2학기\GSE\GSE\SIMPLEGAME\SIMPLEGAME\DEPENDENCIES\GLM\DETAIL\FUNC_PACKING.HPP
C:\USERS\USER\ONEDRIVE\바탕 화면\3학년2학기\GSE\GSE\SIMPLEGAME\SIMPLEGAME\DEPENDENCIES\GLM\DETAIL\FUNC_PACKING.INL
C:\USERS\USER\ONEDRIVE\바탕 화면\3학년2학기\GSE\GSE\SIMPLEGAME\SIMPLEGAME\DEPENDENCIES\GLM\DETAIL\TYPE_HALF.HPP
C:\USERS\USER\ONEDRIVE\바탕 화면\3학년2학기\GSE\GSE\SIMPLEGAME\SIMPLEGAME\DEPENDENCIES\GLM\DETAIL\TYPE_HALF.INL
C:\USERS\USER\ONEDRIVE\바탕 화면\3학년2학기\GSE\GSE\SIMPLEGAME\SIMPLEGAME\DEPENDENCIES\GLM\DETAIL\FUNC_PACKING_SIMD.INL
C:\USERS\USER\ONEDRIVE\바탕 화면\3학년2학기\GSE\GSE\SIMPLEGAME\SIMPLEGAME\DEPENDENCIES\GLM\MATRIX.HPP
C:\USERS\USER\ONEDRIVE\바탕 화면\3학년2학기\GSE\GSE\SIMPLEGAME\SIMPLEGAME\DEPENDENCIES\GLM\VECTOR_RELATIONAL.HPP
C:\USERS\USER\ONEDRIVE\바탕 화면\3학년2학기\GSE\GSE\SIMPLEGAME\SIMPLEGAME\DEPENDENCIES\GLM\INTEGER.HPP
C:\USERS\USER\ONEDRIVE\바탕 화면\3학년2학기\GSE\GSE\SIMPLEGAME\SIMPLEGAME\DEPENDENCIES\GLM\DETAIL\FUNC_INTEGER.HPP
C:\USERS\USER\ONEDRIVE\바탕 화면\3학년2학기\GSE\GSE\SIMPLEGAME\SIMPLEGAME\DEPENDENCIES\GLM\DETAIL\FUNC_INTEGER.INL
C:\PROGRAM FILES (X86)\MICROSOFT VISUAL STUDIO\2019\COMMUNITY\VC\TOOLS\MSVC\14.29.30133\INCLUDE\INTRIN.H
C:\PROGRAM FILES (X86)\MICROSOFT VISUAL STUDIO\2019\COMMUNITY\VC\TOOLS\MSVC\14.29.30133\INCLUDE\SETJMP.H
C:\PROGRAM FILES (X86)\MICROSOFT VISUAL STUDIO\2019\COMMUNITY\VC\TOOLS\MSVC\14.29.30133\INCLUDE\AMMINTRIN.H
C:\USERS\USER\ONEDRIVE\바탕 화면\3학년2학기\GSE\GSE\SIMPLEGAME\SIMPLEGAME\DEPENDENCIES\GLM\DETAIL\FUNC_INTEGER_SIMD.INL
C:\USERS\USER\ONEDRIVE\바탕 화면\3학년2학기\GSE\GSE\SIMPLEGAME\SIMPLEGAME\DEPENDENCIES\GLM\SIMD\INTEGER.H
C:\USERS\USER\ONEDRIVE\바탕 화면\3학년2학기\GSE\GSE\SIMPLEGAME\SIMPLEGAME\DEPENDENCIES\GLM\GTC\MATRIX_TRANSFORM.HPP
C:\USERS\USER\ONEDRIVE\바탕 화면\3학년2학기\GSE\GSE\SIMPLEGAME\SIMPLEGAME\DEPENDENCIES\GLM\GTC\CONSTANTS.HPP
C:\USERS\USER\ONEDRIVE\바탕 화면\3학년2학기\GSE\GSE\SIMPLEGAME\SIMPLEGAME\DEPENDENCIES\GLM\GTC\CONSTANTS.INL
C:\USERS\USER\ONEDRIVE\바탕 화면\3학년2학기\GSE\GSE\SIMPLEGAME\SIMPLEGAME\DEPENDENCIES\GLM\GTC\MATRIX_TRANSFORM.INL
C:\USERS\USER\ONEDRIVE\바탕 화면\3학년2학기\GSE\GSE\SIMPLEGAME\SIMPLEGAME\DEPENDENCIES\GLM\GTX\EULER_ANGLES.HPP
C:\USERS\USER\ONEDRIVE\바탕 화면\3학년2학기\GSE\GSE\SIMPLEGAME\SIMPLEGAME\DEPENDENCIES\GLM\GTX\EULER_ANGLES.INL
C:\USERS\USER\ONEDRIVE\바탕 화면\3학년2학기\GSE\GSE\SIMPLEGAME\SIMPLEGAME\DEPENDENCIES\GLM\GTX\COMPATIBILITY.HPP
C:\USERS\USER\ONEDRIVE\바탕 화면\3학년2학기\GSE\GSE\SIMPLEGAME\SIMPLEGAME\DEPENDENCIES\GLM\GTC\QUATERNION.HPP
C:\USERS\USER\ONEDRIVE\바탕 화면\3학년2학기\GSE\GSE\SIMPLEGAME\SIMPLEGAME\DEPENDENCIES\GLM\GTC\QUATERNION.INL
C:\USERS\USER\ONEDRIVE\바탕 화면\3학년2학기\GSE\GSE\SIMPLEGAME\SIMPLEGAME\DEPENDENCIES\GLM\GTC\QUATERNION_SIMD.INL
C:\USERS\USER\ONEDRIVE\바탕 화면\3학년2학기\GSE\GSE\SIMPLEGAME\SIMPLEGAME\DEPENDENCIES\GLM\GTX\COMPATIBILITY.INL
C:\USERS\USER\ONEDRIVE\바탕 화면\3학년2학기\GSE\GSE\SIMPLEGAME\SIMPLEGAME\LOADPNG.H
^C:\USERS\USER\ONEDRIVE\바탕 화면\3학년2학기\GSE\GSE\SIMPLEGAME\SIMPLEGAME\SOUND.CPP
C:\USERS\USER\ONEDRIVE\바탕 화면\3학년2학기\GSE\GSE\SIMPLEGAME\SIMPLEGAME\X64\DEBUG\SIMPLEGAME.PCH
C:\USERS\USER\ONEDRIVE\바탕 화면\3학년2학기\GSE\GSE\SIMPLEGAME\SIMPLEGAME\SOUND.H
C:\PROGRAM FILES (X86)\MICROSOFT VISUAL STUDIO\2019\COMMUNITY\VC\TOOLS\MSVC\14.29.30133\INCLUDE\MAP
C:\PROGRAM FILES (X86)\MICROSOFT VISUAL STUDIO\2019\COMMUNITY\VC\TOOLS\MSVC\14.29.30133\INCLUDE\TUPLE
C:\PROGRAM FILES (X86)\MICROSOFT VISUAL STUDIO\2019\COMMUNITY\VC\TOOLS\MSVC\14.29.30133\INCLUDE\XTREE
C:\USERS\USER\ONEDRIVE\바탕 화면\3학년2학기\GSE\GSE\SIMPLEGAME\SIMPLEGAME\DEPENDENCIES\IRRKLANG.H
C:\USERS\USER\ONEDRIVE\바탕 화면\3학년2학기\GSE\GSE\SIMPLEGAME\SIMPLEGAME\DEPENDENCIES\IK_IRRKLANGTYPES.H
C:\USERS\USER\ONEDRIVE\바탕 화면\3학년2학기\GSE\GSE\SIMPLEGAME\SIMPLEGAME\DEPENDENCIES\IK_VEC3D.H
C:\PROGRAM FILES (X86)\WINDOWS KITS\10\INCLUDE\10.0.22621.0\UCRT\MATH.H
C:\USERS\USER\ONEDRIVE\바탕 화면\3학년2학기\GSE\GSE\SIMPLEGAME\SIMPLEGAME\DEPENDENCIES\IK_IREFCOUNTED.H
C:\USERS\USER\ONEDRIVE\바탕 화면\3학년2학기\GSE\GSE\SIMPLEGAME\SIMPLEGAME\DEPENDENCIES\IK_IVIRTUALREFCOUNTED.H
C:\USERS\USER\ONEDRIVE\바탕 화면\3학년2학기\GSE\GSE\SIMPLEGAME\SIMPLEGAME\DEPENDENCIES\IK_ESOUNDOUTPUTDRIVERS.H
C:\USERS\USER\ONEDRIVE\바탕 화면\3학년2학기\GSE\GSE\SIMPLEGAME\SIMPLEGAME\DEPENDENCIES\IK_ESOUNDENGINEOPTIONS.H
C:\USERS\USER\ONEDRIVE\바탕 화면\3학년2학기\GSE\GSE\SIMPLEGAME\SIMPLEGAME\DEPENDENCIES\IK_ESTREAMMODES.H
C:\USERS\USER\ONEDRIVE\바탕 화면\3학년2학기\GSE\GSE\SIMPLEGAME\SIMPLEGAME\DEPENDENCIES\IK_SAUDIOSTREAMFORMAT.H
C:\USERS\USER\ONEDRIVE\바탕 화면\3학년2학기\GSE\GSE\SIMPLEGAME\SIMPLEGAME\DEPENDENCIES\IK_ISOUNDENGINE.H
C:\USERS\USER\ONEDRIVE\바탕 화면\3학년2학기\GSE\GSE\SIMPLEGAME\SIMPLEGAME\DEPENDENCIES\IK_ISOUNDSOURCE.H
C:\USERS\USER\ONEDRIVE\바탕 화면\3학년2학기\GSE\GSE\SIMPLEGAME\SIMPLEGAME\DEPENDENCIES\IK_ISOUND.H
C:\USERS\USER\ONEDRIVE\바탕 화면\3학년2학기\GSE\GSE\SIMPLEGAME\SIMPLEGAME\DEPENDENCIES\IK_ISOUNDEFFECTCONTROL.H
C:\USERS\USER\ONEDRIVE\바탕 화면\3학년2학기\GSE\GSE\SIMPLEGAME\SIMPLEGAME\DEPENDENCIES\IK_IFILEFACTORY.H
C:\USERS\USER\ONEDRIVE\바탕 화면\3학년2학기\GSE\GSE\SIMPLEGAME\SIMPLEGAME\DEPENDENCIES\IK_ISOUNDMIXEDOUTPUTRECEIVER.H
C:\USERS\USER\ONEDRIVE\바탕 화면\3학년2학기\GSE\GSE\SIMPLEGAME\SIMPLEGAME\DEPENDENCIES\IK_IAUDIOSTREAM.H
C:\USERS\USER\ONEDRIVE\바탕 화면\3학년2학기\GSE\GSE\SIMPLEGAME\SIMPLEGAME\DEPENDENCIES\IK_IAUDIOSTREAMLOADER.H
C:\USERS\USER\ONEDRIVE\바탕 화면\3학년2학기\GSE\GSE\SIMPLEGAME\SIMPLEGAME\DEPENDENCIES\IK_IFILEREADER.H
C:\USERS\USER\ONEDRIVE\바탕 화면\3학년2학기\GSE\GSE\SIMPLEGAME\SIMPLEGAME\DEPENDENCIES\IK_ISOUNDSTOPEVENTRECEIVER.H
C:\USERS\USER\ONEDRIVE\바탕 화면\3학년2학기\GSE\GSE\SIMPLEGAME\SIMPLEGAME\DEPENDENCIES\IK_ISOUNDDEVICELIST.H
C:\USERS\USER\ONEDRIVE\바탕 화면\3학년2학기\GSE\GSE\SIMPLEGAME\SIMPLEGAME\DEPENDENCIES\IK_IAUDIORECORDER.H
^C:\USERS\USER\ONEDRIVE\바탕 화면\3학년2학기\GSE\GSE\SIMPLEGAME\SIMPLEGAME\GSEOBJECT.CPP
C:\WINDOWS\GLOBALIZATION\SORTING\SORTDEFAULT.NLS
C:\USERS\USER\ONEDRIVE\바탕 화면\3학년2학기\GSE\GSE\SIMPLEGAME\SIMPLEGAME\X64\DEBUG\SIMPLEGAME.PCH
C:\PROGRAM FILES (X86)\MICROSOFT VISUAL STUDIO\2019\COMMUNITY\VC\TOOLS\MSVC\14.29.30133\BIN\HOSTX64\X64\1042\CLUI.DLL
C:\WINDOWS\SYSTEM32\TZRES.DLL
C:\USERS\USER\ONEDRIVE\바탕 화면\3학년2학기\GSE\GSE\SIMPLEGAME\SIMPLEGAME\GSEOBJECT.H
C:\USERS\USER\ONEDRIVE\바탕 화면\3학년2학기\GSE\GSE\SIMPLEGAME\SIMPLEGAME\GLOBAL.H
^C:\USERS\USER\ONEDRIVE\바탕 화면\3학년2학기\GSE\GSE\SIMPLEGAME\SIMPLEGAME\SIMPLEGAME.CPP
C:\USERS\USER\ONEDRIVE\바탕 화면\3학년2학기\GSE\GSE\SIMPLEGAME\SIMPLEGAME\X64\DEBUG\SIMPLEGAME.PCH
C:\USERS\USER\ONEDRIVE\바탕 화면\3학년2학기\GSE\GSE\SIMPLEGAME\SIMPLEGAME\DEPENDENCIES\GLEW.H
C:\PROGRAM FILES (X86)\WINDOWS KITS\10\INCLUDE\10.0.22621.0\UM\GL\GLU.H
C:\PROGRAM FILES (X86)\WINDOWS KITS\10\INCLUDE\10.0.22621.0\SHARED\WINAPIFAMILY.H
C:\PROGRAM FILES (X86)\WINDOWS KITS\10\INCLUDE\10.0.22621.0\SHARED\WINPACKAGEFAMILY.H
C:\PROGRAM FILES (X86)\WINDOWS KITS\10\INCLUDE\10.0.22621.0\UM\GL\GL.H
C:\USERS\USER\ONEDRIVE\바탕 화면\3학년2학기\GSE\GSE\SIMPLEGAME\SIMPLEGAME\DEPENDENCIES\FREEGLUT.H
C:\USERS\USER\ONEDRIVE\바탕 화면\3학년2학기\GSE\GSE\SIMPLEGAME\SIMPLEGAME\DEPENDENCIES\FREEGLUT_STD.H
C:\PROGRAM FILES (X86)\WINDOWS KITS\10\INCLUDE\10.0.22621.0\UM\WINDOWS.H
C:\PROGRAM FILES (X86)\MICROSOFT VISUAL STUDIO\2019\COMMUNITY\VC\TOOLS\MSVC\14.29.30133\INCLUDE\EXCPT.H
C:\PROGRAM FILES (X86)\MICROSOFT VISUAL STUDIO\2019\COMMUNITY\VC\TOOLS\MSVC\14.29.30133\INCLUDE\STDARG.H
C:\PROGRAM FILES (X86)\WINDOWS KITS\10\INCLUDE\10.0.22621.0\SHARED\WINDEF.H
C:\PROGRAM FILES (X86)\WINDOWS KITS\10\INCLUDE\10.0.22621.0\SHARED\MINWINDEF.H
C:\PROGRAM FILES (X86)\WINDOWS KITS\10\INCLUDE\10.0.22621.0\SHARED\SPECSTRINGS.H
C:\PROGRAM FILES (X86)\WINDOWS KITS\10\INCLUDE\10.0.22621.0\SHARED\SPECSTRINGS_STRICT.H
C:\PROGRAM FILES (X86)\WINDOWS KITS\10\INCLUDE\10.0.22621.0\SHARED\SPECSTRINGS_UNDEF.H
C:\PROGRAM FILES (X86)\WINDOWS KITS\10\INCLUDE\10.0.22621.0\SHARED\DRIVERSPECS.H
C:\PROGRAM FILES (X86)\WINDOWS KITS\10\INCLUDE\10.0.22621.0\SHARED\SDV_DRIVERSPECS.H
C:\PROGRAM FILES (X86)\WINDOWS KITS\10\INCLUDE\10.0.22621.0\UM\WINNT.H
C:\PROGRAM FILES (X86)\WINDOWS KITS\10\INCLUDE\10.0.22621.0\SHARED\KERNELSPECS.H
C:\PROGRAM FILES (X86)\WINDOWS KITS\10\INCLUDE\10.0.22621.0\SHARED\BASETSD.H
C:\PROGRAM FILES (X86)\WINDOWS KITS\10\INCLUDE\10.0.22621.0\SHARED\GUIDDEF.H
C:\PROGRAM FILES (X86)\WINDOWS KITS\10\INCLUDE\10.0.22621.0\SHARED\PSHPACK4.H
C:\PROGRAM FILES (X86)\WINDOWS KITS\10\INCLUDE\10.0.22621.0\SHARED\POPPACK.H
C:\PROGRAM FILES (X86)\WINDOWS KITS\10\INCLUDE\10.0.22621.0\SHARED\PSHPACK2.H
C:\PROGRAM FILES (X86)\WINDOWS KITS\10\INCLUDE\10.0.22621.0\SHARED\PSHPACK8.H
C:\PROGRAM FILES (X86)\WINDOWS KITS\10\INCLUDE\10.0.22621.0\SHARED\PSHPACK1.H
C:\PROGRAM FILES (X86)\WINDOWS KITS\10\INCLUDE\10.0.22621.0\SHARED\APISET.H
C:\PROGRAM FILES (X86)\WINDOWS KITS\10\INCLUDE\10.0.22621.0\SHARED\KTMTYPES.H
C:\PROGRAM FILES (X86)\WINDOWS KITS\10\INCLUDE\10.0.22621.0\UM\WINBASE.H
C:\PROGRAM FILES (X86)\WINDOWS KITS\10\INCLUDE\10.0.22621.0\SHARED\APISETCCONV.H
C:\PROGRAM FILES (X86)\WINDOWS KITS\10\INCLUDE\10.0.22621.0\UM\MINWINBASE.H
C:\PROGRAM FILES (X86)\WINDOWS KITS\10\INCLUDE\10.0.22621.0\UM\APIQUERY2.H
C:\PROGRAM FILES (X86)\WINDOWS KITS\10\INCLUDE\10.0.22621.0\UM\PROCESSENV.H
C:\PROGRAM FILES (X86)\WINDOWS KITS\10\INCLUDE\10.0.22621.0\UM\FILEAPIFROMAPP.H
C:\PROGRAM FILES (X86)\WINDOWS KITS\10\INCLUDE\10.0.22621.0\UM\FILEAPI.H
C:\PROGRAM FILES (X86)\WINDOWS KITS\10\INCLUDE\10.0.22621.0\UM\DEBUGAPI.H
C:\PROGRAM FILES (X86)\WINDOWS KITS\10\INCLUDE\10.0.22621.0\UM\UTILAPISET.H
C:\PROGRAM FILES (X86)\WINDOWS KITS\10\INCLUDE\10.0.22621.0\UM\HANDLEAPI.H
C:\PROGRAM FILES (X86)\WINDOWS KITS\10\INCLUDE\10.0.22621.0\UM\ERRHANDLINGAPI.H
C:\PROGRAM FILES (X86)\WINDOWS KITS\10\INCLUDE\10.0.22621.0\UM\FIBERSAPI.H
C:\PROGRAM FILES (X86)\WINDOWS KITS\10\INCLUDE\10.0.22621.0\UM\NAMEDPIPEAPI.H
C:\PROGRAM FILES (X86)\WINDOWS KITS\10\INCLUDE\10.0.22621.0\UM\PROFILEAPI.H
C:\PROGRAM FILES (X86)\WINDOWS KITS\10\INCLUDE\10.0.22621.0\UM\HEAPAPI.H
C:\PROGRAM FILES (X86)\WINDOWS KITS\10\INCLUDE\10.0.22621.0\UM\IOAPISET.H
C:\PROGRAM FILES (X86)\WINDOWS KITS\10\INCLUDE\10.0.22621.0\UM\SYNCHAPI.H
C:\PROGRAM FILES (X86)\WINDOWS KITS\10\INCLUDE\10.0.22621.0\UM\INTERLOCKEDAPI.H
C:\PROGRAM FILES (X86)\WINDOWS KITS\10\INCLUDE\10.0.22621.0\UM\PROCESSTHREADSAPI.H
C:\PROGRAM FILES (X86)\WINDOWS KITS\10\INCLUDE\10.0.22621.0\UM\SYSINFOAPI.H
C:\PROGRAM FILES (X86)\WINDOWS KITS\10\INCLUDE\10.0.22621.0\UM\MEMORYAPI.H
C:\PROGRAM FILES (X86)\WINDOWS KITS\10\INCLUDE\10.0.22621.0\UM\ENCLAVEAPI.H
C:\PROGRAM FILES (X86)\WINDOWS KITS\10\INCLUDE\10.0.22621.0\UM\THREADPOOLLEGACYAPISET.H
C:\PROGRAM FILES (X86)\WINDOWS KITS\10\INCLUDE\10.0.22621.0\UM\THREADPOOLAPISET.H
C:\PROGRAM FILES (X86)\WINDOWS KITS\10\INCLUDE\10.0.22621.0\UM\JOBAPI.H
C:\PROGRAM FILES (X86)\WINDOWS KITS\10\INCLUDE\10.0.22621.0\UM\JOBAPI2.H
C:\PROGRAM FILES (X86)\WINDOWS KITS\10\INCLUDE\10.0.22621.0\UM\WOW64APISET.H
C:\PROGRAM FILES (X86)\WINDOWS KITS\10\INCLUDE\10.0.22621.0\UM\LIBLOADERAPI.H
C:\PROGRAM FILES (X86)\WINDOWS KITS\10\INCLUDE\10.0.22621.0\UM\SECURITYBASEAPI.H
C:\PROGRAM FILES (X86)\WINDOWS KITS\10\INCLUDE\10.0.22621.0\UM\NAMESPACEAPI.H
C:\PROGRAM FILES (X86)\WINDOWS KITS\10\INCLUDE\10.0.22621.0\UM\SYSTEMTOPOLOGYAPI.H
C:\PROGRAM FILES (X86)\WINDOWS KITS\10\INCLUDE\10.0.22621.0\UM\PROCESSTOPOLOGYAPI.H
C:\PROGRAM FILES (X86)\WINDOWS KITS\10\INCLUDE\10.0.22621.0\UM\SECURITYAPPCONTAINER.H
C:\PROGRAM FILES (X86)\WINDOWS KITS\10\INCLUDE\10.0.22621.0\UM\REALTIMEAPISET.H
C:\PROGRAM FILES (X86)\WINDOWS KITS\10\INCLUDE\10.0.22621.0\SHARED\WINERROR.H
C:\PROGRAM FILES (X86)\WINDOWS KITS\10\INCLUDE\10.0.22621.0\UM\TIMEZONEAPI.H
C:\PROGRAM FILES (X86)\WINDOWS KITS\10\INCLUDE\10.0.22621.0\UM\WINGDI.H
C:\PROGRAM FILES (X86)\WINDOWS KITS\10\INCLUDE\10.0.22621.0\UM\WINUSER.H
C:\PROGRAM FILES (X86)\WINDOWS KITS\10\INCLUDE\10.0.22621.0\SHARED\TVOUT.H
C:\PROGRAM FILES (X86)\WINDOWS KITS\10\INCLUDE\10.0.22621.0\UM\WINNLS.H
C:\PROGRAM FILES (X86)\WINDOWS KITS\10\INCLUDE\10.0.22621.0\UM\DATETIMEAPI.H
C:\PROGRAM FILES (X86)\WINDOWS KITS\10\INCLUDE\10.0.22621.0\UM\STRINGAPISET.H
C:\PROGRAM FILES (X86)\WINDOWS KITS\10\INCLUDE\10.0.22621.0\UM\WINCON.H
C:\PROGRAM FILES (X86)\WINDOWS KITS\10\INCLUDE\10.0.22621.0\UM\WINCONTYPES.H
C:\PROGRAM FILES (X86)\WINDOWS KITS\10\INCLUDE\10.0.22621.0\UM\CONSOLEAPI.H
C:\PROGRAM FILES (X86)\WINDOWS KITS\10\INCLUDE\10.0.22621.0\UM\CONSOLEAPI2.H
C:\PROGRAM FILES (X86)\WINDOWS KITS\10\INCLUDE\10.0.22621.0\UM\CONSOLEAPI3.H
C:\PROGRAM FILES (X86)\WINDOWS KITS\10\INCLUDE\10.0.22621.0\UM\WINVER.H
C:\PROGRAM FILES (X86)\WINDOWS KITS\10\INCLUDE\10.0.22621.0\UM\VERRSRC.H
C:\PROGRAM FILES (X86)\WINDOWS KITS\10\INCLUDE\10.0.22621.0\UM\WINREG.H
C:\PROGRAM FILES (X86)\WINDOWS KITS\10\INCLUDE\10.0.22621.0\UM\REASON.H
C:\PROGRAM FILES (X86)\WINDOWS KITS\10\INCLUDE\10.0.22621.0\UM\WINNETWK.H
C:\PROGRAM FILES (X86)\WINDOWS KITS\10\INCLUDE\10.0.22621.0\SHARED\WNNC.H
C:\PROGRAM FILES (X86)\WINDOWS KITS\10\INCLUDE\10.0.22621.0\SHARED\STRALIGN.H
C:\PROGRAM FILES (X86)\WINDOWS KITS\10\INCLUDE\10.0.22621.0\UM\WINSVC.H
C:\PROGRAM FILES (X86)\WINDOWS KITS\10\INCLUDE\10.0.22621.0\UM\MCX.H
C:\PROGRAM FILES (X86)\WINDOWS KITS\10\INCLUDE\10.0.22621.0\UM\IMM.H
C:\PROGRAM FILES (X86)\WINDOWS KITS\10\INCLUDE\10.0.22621.0\UM\IME_CMODES.H
C:\USERS\USER\ONEDRIVE\바탕 화면\3학년2학기\GSE\GSE\SIMPLEGAME\SIMPLEGAME\DEPENDENCIES\FREEGLUT_EXT.H
C:\USERS\USER\ONEDRIVE\바탕 화면\3학년2학기\GSE\GSE\SIMPLEGAME\SIMPLEGAME\RENDERER.H
C:\PROGRAM FILES (X86)\MICROSOFT VISUAL STUDIO\2019\COMMUNITY\VC\TOOLS\MSVC\14.29.30133\INCLUDE\STRING
C:\PROGRAM FILES (X86)\MICROSOFT VISUAL STUDIO\2019\COMMUNITY\VC\TOOLS\MSVC\14.29.30133\INCLUDE\FSTREAM
C:\PROGRAM FILES (X86)\WINDOWS KITS\10\INCLUDE\10.0.22621.0\UCRT\ASSERT.H
C:\USERS\USER\ONEDRIVE\바탕 화면\3학년2학기\GSE\GSE\SIMPLEGAME\SIMPLEGAME\DEPENDENCIES\GLM\GLM.HPP
C:\USERS\USER\ONEDRIVE\바탕 화면\3학년2학기\GSE\GSE\SIMPLEGAME\SIMPLEGAME\DEPENDENCIES\GLM\DETAIL\_FIXES.HPP
C:\PROGRAM FILES (X86)\MICROSOFT VISUAL STUDIO\2019\COMMUNITY\VC\TOOLS\MSVC\14.29.30133\INCLUDE\CASSERT
C:\USERS\USER\ONEDRIVE\바탕 화면\3학년2학기\GSE\GSE\SIMPLEGAME\SIMPLEGAME\DEPENDENCIES\GLM\FWD.HPP
C:\USERS\USER\ONEDRIVE\바탕 화면\3학년2학기\GSE\GSE\SIMPLEGAME\SIMPLEGAME\DEPENDENCIES\GLM\DETAIL\TYPE_INT.HPP
C:\USERS\USER\ONEDRIVE\바탕 화면\3학년2학기\GSE\GSE\SIMPLEGAME\SIMPLEGAME\DEPENDENCIES\GLM\DETAIL\SETUP.HPP
C:\USERS\USER\ONEDRIVE\바탕 화면\3학년2학기\GSE\GSE\SIMPLEGAME\SIMPLEGAME\DEPENDENCIES\GLM\SIMD\PLATFORM.H
C:\PROGRAM FILES (X86)\MICROSOFT VISUAL STUDIO\2019\COMMUNITY\VC\TOOLS\MSVC\14.29.30133\INCLUDE\EMMINTRIN.H
C:\PROGRAM FILES (X86)\MICROSOFT VISUAL STUDIO\2019\COMMUNITY\VC\TOOLS\MSVC\14.29.30133\INCLUDE\XMMINTRIN.H
C:\PROGRAM FILES (X86)\MICROSOFT VISUAL STUDIO\2019\COMMUNITY\VC\TOOLS\MSVC\14.29.30133\INCLUDE\MMINTRIN.H
C:\USERS\USER\ONEDRIVE\바탕 화면\3학년2학기\GSE\GSE\SIMPLEGAME\SIMPLEGAME\DEPENDENCIES\GLM\DETAIL\TYPE_FLOAT.HPP
C:\USERS\USER\ONEDRIVE\바탕 화면\3학년2학기\GSE\GSE\SIMPLEGAME\SIMPLEGAME\DEPENDENCIES\GLM\DETAIL\TYPE_VEC.HPP
C:\USERS\USER\ONEDRIVE\바탕 화면\3학년2학기\GSE\GSE\SIMPLEGAME\SIMPLEGAME\DEPENDENCIES\GLM\DETAIL\PRECISION.HPP
C:\USERS\USER\ONEDRIVE\바탕 화면\3학년2학기\GSE\GSE\SIMPLEGAME\SIMPLEGAME\DEPENDENCIES\GLM\DETAIL\TYPE_MAT.HPP
C:\USERS\USER\ONEDRIVE\바탕 화면\3학년2학기\GSE\GSE\SIMPLEGAME\SIMPLEGAME\DEPENDENCIES\GLM\VEC2.HPP
C:\USERS\USER\ONEDRIVE\바탕 화면\3학년2학기\GSE\GSE\SIMPLEGAME\SIMPLEGAME\DEPENDENCIES\GLM\DETAIL\TYPE_VEC2.HPP
C:\USERS\USER\ONEDRIVE\바탕 화면\3학년2학기\GSE\GSE\SIMPLEGAME\SIMPLEGAME\DEPENDENCIES\GLM\DETAIL\TYPE_VEC2.INL
C:\USERS\USER\ONEDRIVE\바탕 화면\3학년2학기\GSE\GSE\SIMPLEGAME\SIMPLEGAME\DEPENDENCIES\GLM\VEC3.HPP
C:\USERS\USER\ONEDRIVE\바탕 화면\3학년2학기\GSE\GSE\SIMPLEGAME\SIMPLEGAME\DEPENDENCIES\GLM\DETAIL\TYPE_VEC3.HPP
C:\USERS\USER\ONEDRIVE\바탕 화면\3학년2학기\GSE\GSE\SIMPLEGAME\SIMPLEGAME\DEPENDENCIES\GLM\DETAIL\TYPE_VEC3.INL
C:\USERS\USER\ONEDRIVE\바탕 화면\3학년2학기\GSE\GSE\SIMPLEGAME\SIMPLEGAME\DEPENDENCIES\GLM\VEC4.HPP
C:\USERS\USER\ONEDRIVE\바탕 화면\3학년2학기\GSE\GSE\SIMPLEGAME\SIMPLEGAME\DEPENDENCIES\GLM\DETAIL\TYPE_VEC4.HPP
C:\USERS\USER\ONEDRIVE\바탕 화면\3학년2학기\GSE\GSE\SIMPLEGAME\SIMPLEGAME\DEPENDENCIES\GLM\DETAIL\TYPE_VEC4.INL
C:\USERS\USER\ONEDRIVE\바탕 화면\3학년2학기\GSE\GSE\SIMPLEGAME\SIMPLEGAME\DEPENDENCIES\GLM\DETAIL\TYPE_VEC4_SIMD.INL
C:\USERS\USER\ONEDRIVE\바탕 화면\3학년2학기\GSE\GSE\SIMPLEGAME\SIMPLEGAME\DEPENDENCIES\GLM\MAT2X2.HPP
C:\USERS\USER\ONEDRIVE\바탕 화면\3학년2학기\GSE\GSE\SIMPLEGAME\SIMPLEGAME\DEPENDENCIES\GLM\DETAIL\TYPE_MAT2X2.HPP
C:\USERS\USER\ONEDRIVE\바탕 화면\3학년2학기\GSE\GSE\SIMPLEGAME\SIMPLEGAME\DEPENDENCIES\GLM\DETAIL\TYPE_MAT2X2.INL
C:\USERS\USER\ONEDRIVE\바탕 화면\3학년2학기\GSE\GSE\SIMPLEGAME\SIMPLEGAME\DEPENDENCIES\GLM\DETAIL\FUNC_MATRIX.HPP
C:\USERS\USER\ONEDRIVE\바탕 화면\3학년2학기\GSE\GSE\SIMPLEGAME\SIMPLEGAME\DEPENDENCIES\GLM\MAT2X3.HPP
C:\USERS\USER\ONEDRIVE\바탕 화면\3학년2학기\GSE\GSE\SIMPLEGAME\SIMPLEGAME\DEPENDENCIES\GLM\DETAIL\TYPE_MAT2X3.HPP
C:\USERS\USER\ONEDRIVE\바탕 화면\3학년2학기\GSE\GSE\SIMPLEGAME\SIMPLEGAME\DEPENDENCIES\GLM\DETAIL\TYPE_MAT2X3.INL
C:\USERS\USER\ONEDRIVE\바탕 화면\3학년2학기\GSE\GSE\SIMPLEGAME\SIMPLEGAME\DEPENDENCIES\GLM\MAT2X4.HPP
C:\USERS\USER\ONEDRIVE\바탕 화면\3학년2학기\GSE\GSE\SIMPLEGAME\SIMPLEGAME\DEPENDENCIES\GLM\DETAIL\TYPE_MAT2X4.HPP
C:\USERS\USER\ONEDRIVE\바탕 화면\3학년2학기\GSE\GSE\SIMPLEGAME\SIMPLEGAME\DEPENDENCIES\GLM\DETAIL\TYPE_MAT2X4.INL
C:\USERS\USER\ONEDRIVE\바탕 화면\3학년2학기\GSE\GSE\SIMPLEGAME\SIMPLEGAME\DEPENDENCIES\GLM\MAT3X2.HPP
C:\USERS\USER\ONEDRIVE\바탕 화면\3학년2학기\GSE\GSE\SIMPLEGAME\SIMPLEGAME\DEPENDENCIES\GLM\DETAIL\TYPE_MAT3X2.HPP
C:\USERS\USER\ONEDRIVE\바탕 화면\3학년2학기\GSE\GSE\SIMPLEGAME\SIMPLEGAME\DEPENDENCIES\GLM\DETAIL\TYPE_MAT3X2.INL
C:\USERS\USER\ONEDRIVE\바탕 화면\3학년2학기\GSE\GSE\SIMPLEGAME\SIMPLEGAME\DEPENDENCIES\GLM\MAT3X3.HPP
C:\USERS\USER\ONEDRIVE\바탕 화면\3학년2학기\GSE\GSE\SIMPLEGAME\SIMPLEGAME\DEPENDENCIES\GLM\DETAIL\TYPE_MAT3X3.HPP
C:\USERS\USER\ONEDRIVE\바탕 화면\3학년2학기\GSE\GSE\SIMPLEGAME\SIMPLEGAME\DEPENDENCIES\GLM\DETAIL\TYPE_MAT3X3.INL
C:\USERS\USER\ONEDRIVE\바탕 화면\3학년2학기\GSE\GSE\SIMPLEGAME\SIMPLEGAME\DEPENDENCIES\GLM\MAT3X4.HPP
C:\USERS\USER\ONEDRIVE\바탕 화면\3학년2학기\GSE\GSE\SIMPLEGAME\SIMPLEGAME\DEPENDENCIES\GLM\DETAIL\TYPE_MAT3X4.HPP
C:\USERS\USER\ONEDRIVE\바탕 화면\3학년2학기\GSE\GSE\SIMPLEGAME\SIMPLEGAME\DEPENDENCIES\GLM\DETAIL\TYPE_MAT3X4.INL
C:\USERS\USER\ONEDRIVE\바탕 화면\3학년2학기\GSE\GSE\SIMPLEGAME\SIMPLEGAME\DEPENDENCIES\GLM\MAT4X2.HPP
C:\USERS\USER\ONEDRIVE\바탕 화면\3학년2학기\GSE\GSE\SIMPLEGAME\SIMPLEGAME\DEPENDENCIES\GLM\DETAIL\TYPE_MAT4X2.HPP
C:\USERS\USER\ONEDRIVE\바탕 화면\3학년2학기\GSE\GSE\SIMPLEGAME\SIMPLEGAME\DEPENDENCIES\GLM\DETAIL\TYPE_MAT4X2.INL
C:\USERS\USER\ONEDRIVE\바탕 화면\3학년2학기\GSE\GSE\SIMPLEGAME\SIMPLEGAME\DEPENDENCIES\GLM\MAT4X3.HPP
C:\USERS\USER\ONEDRIVE\바탕 화면\3학년2학기\GSE\GSE\SIMPLEGAME\SIMPLEGAME\DEPENDENCIES\GLM\DETAIL\TYPE_MAT4X3.HPP
C:\USERS\USER\ONEDRIVE\바탕 화면\3학년2학기\GSE\GSE\SIMPLEGAME\SIMPLEGAME\DEPENDENCIES\GLM\DETAIL\TYPE_MAT4X3.INL
C:\USERS\USER\ONEDRIVE\바탕 화면\3학년2학기\GSE\GSE\SIMPLEGAME\SIMPLEGAME\DEPENDENCIES\GLM\MAT4X4.HPP
C:\USERS\USER\ONEDRIVE\바탕 화면\3학년2학기\GSE\GSE\SIMPLEGAME\SIMPLEGAME\DEPENDENCIES\GLM\DETAIL\TYPE_MAT4X4.HPP
C:\USERS\USER\ONEDRIVE\바탕 화면\3학년2학기\GSE\GSE\SIMPLEGAME\SIMPLEGAME\DEPENDENCIES\GLM\DETAIL\TYPE_MAT4X4.INL
C:\USERS\USER\ONEDRIVE\바탕 화면\3학년2학기\GSE\GSE\SIMPLEGAME\SIMPLEGAME\DEPENDENCIES\GLM\DETAIL\TYPE_MAT4X4_SIMD.INL
C:\USERS\USER\ONEDRIVE\바탕 화면\3학년2학기\GSE\GSE\SIMPLEGAME\SIMPLEGAME\DEPENDENCIES\GLM\DETAIL\FUNC_MATRIX.INL
C:\USERS\USER\ONEDRIVE\바탕 화면\3학년2학기\GSE\GSE\SIMPLEGAME\SIMPLEGAME\DEPENDENCIES\GLM\GEOMETRIC.HPP
C:\USERS\USER\ONEDRIVE\바탕 화면\3학년2학기\GSE\GSE\SIMPLEGAME\SIMPLEGAME\DEPENDENCIES\GLM\DETAIL\FUNC_GEOMETRIC.HPP
C:\USERS\USER\ONEDRIVE\바탕 화면\3학년2학기\GSE\GSE\SIMPLEGAME\SIMPLEGAME\DEPENDENCIES\GLM\DETAIL\FUNC_GEOMETRIC.INL
C:\USERS\USER\ONEDRIVE\바탕 화면\3학년2학기\GSE\GSE\SIMPLEGAME\SIMPLEGAME\DEPENDENCIES\GLM\DETAIL\FUNC_EXPONENTIAL.HPP
C:\USERS\USER\ONEDRIVE\바탕 화면\3학년2학기\GSE\GSE\SIMPLEGAME\SIMPLEGAME\DEPENDENCIES\GLM\DETAIL\TYPE_VEC1.HPP
C:\USERS\USER\ONEDRIVE\바탕 화면\3학년2학기\GSE\GSE\SIMPLEGAME\SIMPLEGAME\DEPENDENCIES\GLM\DETAIL\TYPE_VEC1.INL
C:\USERS\USER\ONEDRIVE\바탕 화면\3학년2학기\GSE\GSE\SIMPLEGAME\SIMPLEGAME\DEPENDENCIES\GLM\DETAIL\FUNC_EXPONENTIAL.INL
C:\USERS\USER\ONEDRIVE\바탕 화면\3학년2학기\GSE\GSE\SIMPLEGAME\SIMPLEGAME\DEPENDENCIES\GLM\DETAIL\FUNC_VECTOR_RELATIONAL.HPP
C:\USERS\USER\ONEDRIVE\바탕 화면\3학년2학기\GSE\GSE\SIMPLEGAME\SIMPLEGAME\DEPENDENCIES\GLM\DETAIL\FUNC_VECTOR_RELATIONAL.INL
C:\USERS\USER\ONEDRIVE\바탕 화면\3학년2학기\GSE\GSE\SIMPLEGAME\SIMPLEGAME\DEPENDENCIES\GLM\DETAIL\FUNC_VECTOR_RELATIONAL_SIMD.INL
C:\USERS\USER\ONEDRIVE\바탕 화면\3학년2학기\GSE\GSE\SIMPLEGAME\SIMPLEGAME\DEPENDENCIES\GLM\DETAIL\_VECTORIZE.HPP
C:\USERS\USER\ONEDRIVE\바탕 화면\3학년2학기\GSE\GSE\SIMPLEGAME\SIMPLEGAME\DEPENDENCIES\GLM\DETAIL\FUNC_EXPONENTIAL_SIMD.INL
C:\USERS\USER\ONEDRIVE\바탕 화면\3학년2학기\GSE\GSE\SIMPLEGAME\SIMPLEGAME\DEPENDENCIES\GLM\SIMD\EXPONENTIAL.H
C:\USERS\USER\ONEDRIVE\바탕 화면\3학년2학기\GSE\GSE\SIMPLEGAME\SIMPLEGAME\DEPENDENCIES\GLM\DETAIL\FUNC_COMMON.HPP
C:\USERS\USER\ONEDRIVE\바탕 화면\3학년2학기\GSE\GSE\SIMPLEGAME\SIMPLEGAME\DEPENDENCIES\GLM\DETAIL\FUNC_COMMON.INL
C:\USERS\USER\ONEDRIVE\바탕 화면\3학년2학기\GSE\GSE\SIMPLEGAME\SIMPLEGAME\DEPENDENCIES\GLM\DETAIL\FUNC_COMMON_SIMD.INL
C:\USERS\USER\ONEDRIVE\바탕 화면\3학년2학기\GSE\GSE\SIMPLEGAME\SIMPLEGAME\DEPENDENCIES\GLM\SIMD\COMMON.H
C:\PROGRAM FILES (X86)\MICROSOFT VISUAL STUDIO\2019\COMMUNITY\VC\TOOLS\MSVC\14.29.30133\INCLUDE\IMMINTRIN.H
C:\PROGRAM FILES (X86)\MICROSOFT VISUAL STUDIO\2019\COMMUNITY\VC\TOOLS\MSVC\14.29.30133\INCLUDE\WMMINTRIN.H
C:\PROGRAM FILES (X86)\MICROSOFT VISUAL STUDIO\2019\COMMUNITY\VC\TOOLS\MSVC\14.29.30133\INCLUDE\NMMINTRIN.H
C:\PROGRAM FILES (X86)\MICROSOFT VISUAL STUDIO\2019\COMMUNITY\VC\TOOLS\MSVC\14.29.30133\INCLUDE\SMMINTRIN.H
C:\PROGRAM FILES (X86)\MICROSOFT VISUAL STUDIO\2019\COMMUNITY\VC\TOOLS\MSVC\14.29.30133\INCLUDE\TMMINTRIN.H
C:\PROGRAM FILES (X86)\MICROSOFT VISUAL STUDIO\2019\COMMUNITY\VC\TOOLS\MSVC\14.29.30133\INCLUDE\PMMINTRIN.H
C:\PROGRAM FILES (X86)\MICROSOFT VISUAL STUDIO\2019\COMMUNITY\VC\TOOLS\MSVC\14.29.30133\INCLUDE\ZMMINTRIN.H
C:\USERS\USER\ONEDRIVE\바탕 화면\3학년2학기\GSE\GSE\SIMPLEGAME\SIMPLEGAME\DEPENDENCIES\GLM\DETAIL\FUNC_GEOMETRIC_SIMD.INL
C:\USERS\USER\ONEDRIVE\바탕 화면\3학년2학기\GSE\GSE\SIMPLEGAME\SIMPLEGAME\DEPENDENCIES\GLM\SIMD\GEOMETRIC.H
C:\USERS\USER\ONEDRIVE\바탕 화면\3학년2학기\GSE\GSE\SIMPLEGAME\SIMPLEGAME\DEPENDENCIES\GLM\DETAIL\FUNC_MATRIX_SIMD.INL
C:\USERS\USER\ONEDRIVE\바탕 화면\3학년2학기\GSE\GSE\SIMPLEGAME\SIMPLEGAME\DEPENDENCIES\GLM\SIMD\MATRIX.H
C:\USERS\USER\ONEDRIVE\바탕 화면\3학년2학기\GSE\GSE\SIMPLEGAME\SIMPLEGAME\DEPENDENCIES\GLM\TRIGONOMETRIC.HPP
C:\USERS\USER\ONEDRIVE\바탕 화면\3학년2학기\GSE\GSE\SIMPLEGAME\SIMPLEGAME\DEPENDENCIES\GLM\DETAIL\FUNC_TRIGONOMETRIC.HPP
C:\USERS\USER\ONEDRIVE\바탕 화면\3학년2학기\GSE\GSE\SIMPLEGAME\SIMPLEGAME\DEPENDENCIES\GLM\DETAIL\FUNC_TRIGONOMETRIC.INL
C:\USERS\USER\ONEDRIVE\바탕 화면\3학년2학기\GSE\GSE\SIMPLEGAME\SIMPLEGAME\DEPENDENCIES\GLM\DETAIL\FUNC_TRIGONOMETRIC_SIMD.INL
C:\USERS\USER\ONEDRIVE\바탕 화면\3학년2학기\GSE\GSE\SIMPLEGAME\SIMPLEGAME\DEPENDENCIES\GLM\EXPONENTIAL.HPP
C:\USERS\USER\ONEDRIVE\바탕 화면\3학년2학기\GSE\GSE\SIMPLEGAME\SIMPLEGAME\DEPENDENCIES\GLM\COMMON.HPP
C:\USERS\USER\ONEDRIVE\바탕 화면\3학년2학기\GSE\GSE\SIMPLEGAME\SIMPLEGAME\DEPENDENCIES\GLM\PACKING.HPP
C:\USERS\USER\ONEDRIVE\바탕 화면\3학년2학기\GSE\GSE\SIMPLEGAME\SIMPLEGAME\DEPENDENCIES\GLM\DETAIL\FUNC_PACKING.HPP
C:\USERS\USER\ONEDRIVE\바탕 화면\3학년2학기\GSE\GSE\SIMPLEGAME\SIMPLEGAME\DEPENDENCIES\GLM\DETAIL\FUNC_PACKING.INL
C:\USERS\USER\ONEDRIVE\바탕 화면\3학년2학기\GSE\GSE\SIMPLEGAME\SIMPLEGAME\DEPENDENCIES\GLM\DETAIL\TYPE_HALF.HPP
C:\USERS\USER\ONEDRIVE\바탕 화면\3학년2학기\GSE\GSE\SIMPLEGAME\SIMPLEGAME\DEPENDENCIES\GLM\DETAIL\TYPE_HALF.INL
C:\USERS\USER\ONEDRIVE\바탕 화면\3학년2학기\GSE\GSE\SIMPLEGAME\SIMPLEGAME\DEPENDENCIES\GLM\DETAIL\FUNC_PACKING_SIMD.INL
C:\USERS\USER\ONEDRIVE\바탕 화면\3학년2학기\GSE\GSE\SIMPLEGAME\SIMPLEGAME\DEPENDENCIES\GLM\MATRIX.HPP
C:\USERS\USER\ONEDRIVE\바탕 화면\3학년2학기\GSE\GSE\SIMPLEGAME\SIMPLEGAME\DEPENDENCIES\GLM\VECTOR_RELATIONAL.HPP
C:\USERS\USER\ONEDRIVE\바탕 화면\3학년2학기\GSE\GSE\SIMPLEGAME\SIMPLEGAME\DEPENDENCIES\GLM\INTEGER.HPP
C:\USERS\USER\ONEDRIVE\바탕 화면\3학년2학기\GSE\GSE\SIMPLEGAME\SIMPLEGAME\DEPENDENCIES\GLM\DETAIL\FUNC_INTEGER.HPP
C:\USERS\USER\ONEDRIVE\바탕 화면\3학년2학기\GSE\GSE\SIMPLEGAME\SIMPLEGAME\DEPENDENCIES\GLM\DETAIL\FUNC_INTEGER.INL
C:\PROGRAM FILES (X86)\MICROSOFT VISUAL STUDIO\2019\COMMUNITY\VC\TOOLS\MSVC\14.29.30133\INCLUDE\INTRIN.H
C:\PROGRAM FILES (X86)\MICROSOFT VISUAL STUDIO\2019\COMMUNITY\VC\TOOLS\MSVC\14.29.30133\INCLUDE\SETJMP.H
C:\PROGRAM FILES (X86)\MICROSOFT VISUAL STUDIO\2019\COMMUNITY\VC\TOOLS\MSVC\14.29.30133\INCLUDE\AMMINTRIN.H
C:\USERS\USER\ONEDRIVE\바탕 화면\3학년2학기\GSE\GSE\SIMPLEGAME\SIMPLEGAME\DEPENDENCIES\GLM\DETAIL\FUNC_INTEGER_SIMD.INL
C:\USERS\USER\ONEDRIVE\바탕 화면\3학년2학기\GSE\GSE\SIMPLEGAME\SIMPLEGAME\DEPENDENCIES\GLM\SIMD\INTEGER.H
C:\USERS\USER\ONEDRIVE\바탕 화면\3학년2학기\GSE\GSE\SIMPLEGAME\SIMPLEGAME\DEPENDENCIES\GLM\GTC\MATRIX_TRANSFORM.HPP
C:\USERS\USER\ONEDRIVE\바탕 화면\3학년2학기\GSE\GSE\SIMPLEGAME\SIMPLEGAME\DEPENDENCIES\GLM\GTC\CONSTANTS.HPP
C:\USERS\USER\ONEDRIVE\바탕 화면\3학년2학기\GSE\GSE\SIMPLEGAME\SIMPLEGAME\DEPENDENCIES\GLM\GTC\CONSTANTS.INL
C:\USERS\USER\ONEDRIVE\바탕 화면\3학년2학기\GSE\GSE\SIMPLEGAME\SIMPLEGAME\DEPENDENCIES\GLM\GTC\MATRIX_TRANSFORM.INL
C:\USERS\USER\ONEDRIVE\바탕 화면\3학년2학기\GSE\GSE\SIMPLEGAME\SIMPLEGAME\DEPENDENCIES\GLM\GTX\EULER_ANGLES.HPP
C:\USERS\USER\ONEDRIVE\바탕 화면\3학년2학기\GSE\GSE\SIMPLEGAME\SIMPLEGAME\DEPENDENCIES\GLM\GTX\EULER_ANGLES.INL
C:\USERS\USER\ONEDRIVE\바탕 화면\3학년2학기\GSE\GSE\SIMPLEGAME\SIMPLEGAME\DEPENDENCIES\GLM\GTX\COMPATIBILITY.HPP
C:\USERS\USER\ONEDRIVE\바탕 화면\3학년2학기\GSE\GSE\SIMPLEGAME\SIMPLEGAME\DEPENDENCIES\GLM\GTC\QUATERNION.HPP
C:\USERS\USER\ONEDRIVE\바탕 화면\3학년2학기\GSE\GSE\SIMPLEGAME\SIMPLEGAME\DEPENDENCIES\GLM\GTC\QUATERNION.INL
C:\USERS\USER\ONEDRIVE\바탕 화면\3학년2학기\GSE\GSE\SIMPLEGAME\SIMPLEGAME\DEPENDENCIES\GLM\GTC\QUATERNION_SIMD.INL
C:\USERS\USER\ONEDRIVE\바탕 화면\3학년2학기\GSE\GSE\SIMPLEGAME\SIMPLEGAME\DEPENDENCIES\GLM\GTX\COMPATIBILITY.INL
C:\USERS\USER\ONEDRIVE\바탕 화면\3학년2학기\GSE\GSE\SIMPLEGAME\SIMPLEGAME\LOADPNG.H
C:\USERS\USER\ONEDRIVE\바탕 화면\3학년2학기\GSE\GSE\SIMPLEGAME\SIMPLEGAME\GSEGAME.H
C:\USERS\USER\ONEDRIVE\바탕 화면\3학년2학기\GSE\GSE\SIMPLEGAME\SIMPLEGAME\GLOBAL.H
C:\USERS\USER\ONEDRIVE\바탕 화면\3학년2학기\GSE\GSE\SIMPLEGAME\SIMPLEGAME\GSEOBJECTMGR.H
C:\USERS\USER\ONEDRIVE\바탕 화면\3학년2학기\GSE\GSE\SIMPLEGAME\SIMPLEGAME\GSEOBJECT.H
C:\USERS\USER\ONEDRIVE\바탕 화면\3학년2학기\GSE\GSE\SIMPLEGAME\SIMPLEGAME\SOUND.H
C:\PROGRAM FILES (X86)\MICROSOFT VISUAL STUDIO\2019\COMMUNITY\VC\TOOLS\MSVC\14.29.30133\INCLUDE\MAP
C:\PROGRAM FILES (X86)\MICROSOFT VISUAL STUDIO\2019\COMMUNITY\VC\TOOLS\MSVC\14.29.30133\INCLUDE\TUPLE
C:\PROGRAM FILES (X86)\MICROSOFT VISUAL STUDIO\2019\COMMUNITY\VC\TOOLS\MSVC\14.29.30133\INCLUDE\XTREE
C:\USERS\USER\ONEDRIVE\바탕 화면\3학년2학기\GSE\GSE\SIMPLEGAME\SIMPLEGAME\DEPENDENCIES\IRRKLANG.H
C:\USERS\USER\ONEDRIVE\바탕 화면\3학년2학기\GSE\GSE\SIMPLEGAME\SIMPLEGAME\DEPENDENCIES\IK_IRRKLANGTYPES.H
C:\USERS\USER\ONEDRIVE\바탕 화면\3학년2학기\GSE\GSE\SIMPLEGAME\SIMPLEGAME\DEPENDENCIES\IK_VEC3D.H
C:\PROGRAM FILES (X86)\WINDOWS KITS\10\INCLUDE\10.0.22621.0\UCRT\MATH.H
C:\USERS\USER\ONEDRIVE\바탕 화면\3학년2학기\GSE\GSE\SIMPLEGAME\SIMPLEGAME\DEPENDENCIES\IK_IREFCOUNTED.H
C:\USERS\USER\ONEDRIVE\바탕 화면\3학년2학기\GSE\GSE\SIMPLEGAME\SIMPLEGAME\DEPENDENCIES\IK_IVIRTUALREFCOUNTED.H
C:\USERS\USER\ONEDRIVE\바탕 화면\3학년2학기\GSE\GSE\SIMPLEGAME\SIMPLEGAME\DEPENDENCIES\IK_ESOUNDOUTPUTDRIVERS.H
C:\USERS\USER\ONEDRIVE\바탕 화면\3학년2학기\GSE\GSE\SIMPLEGAME\SIMPLEGAME\DEPENDENCIES\IK_ESOUNDENGINEOPTIONS.H
C:\USERS\USER\ONEDRIVE\바탕 화면\3학년2학기\GSE\GSE\SIMPLEGAME\SIMPLEGAME\DEPENDENCIES\IK_ESTREAMMODES.H
C:\USERS\USER\ONEDRIVE\바탕 화면\3학년2학기\GSE\GSE\SIMPLEGAME\SIMPLEGAME\DEPENDENCIES\IK_SAUDIOSTREAMFORMAT.H
C:\USERS\USER\ONEDRIVE\바탕 화면\3학년2학기\GSE\GSE\SIMPLEGAME\SIMPLEGAME\DEPENDENCIES\IK_ISOUNDENGINE.H
C:\USERS\USER\ONEDRIVE\바탕 화면\3학년2학기\GSE\GSE\SIMPLEGAME\SIMPLEGAME\DEPENDENCIES\IK_ISOUNDSOURCE.H
C:\USERS\USER\ONEDRIVE\바탕 화면\3학년2학기\GSE\GSE\SIMPLEGAME\SIMPLEGAME\DEPENDENCIES\IK_ISOUND.H
C:\USERS\USER\ONEDRIVE\바탕 화면\3학년2학기\GSE\GSE\SIMPLEGAME\SIMPLEGAME\DEPENDENCIES\IK_ISOUNDEFFECTCONTROL.H
C:\USERS\USER\ONEDRIVE\바탕 화면\3학년2학기\GSE\GSE\SIMPLEGAME\SIMPLEGAME\DEPENDENCIES\IK_IFILEFACTORY.H
C:\USERS\USER\ONEDRIVE\바탕 화면\3학년2학기\GSE\GSE\SIMPLEGAME\SIMPLEGAME\DEPENDENCIES\IK_ISOUNDMIXEDOUTPUTRECEIVER.H
C:\USERS\USER\ONEDRIVE\바탕 화면\3학년2학기\GSE\GSE\SIMPLEGAME\SIMPLEGAME\DEPENDENCIES\IK_IAUDIOSTREAM.H
C:\USERS\USER\ONEDRIVE\바탕 화면\3학년2학기\GSE\GSE\SIMPLEGAME\SIMPLEGAME\DEPENDENCIES\IK_IAUDIOSTREAMLOADER.H
C:\USERS\USER\ONEDRIVE\바탕 화면\3학년2학기\GSE\GSE\SIMPLEGAME\SIMPLEGAME\DEPENDENCIES\IK_IFILEREADER.H
C:\USERS\USER\ONEDRIVE\바탕 화면\3학년2학기\GSE\GSE\SIMPLEGAME\SIMPLEGAME\DEPENDENCIES\IK_ISOUNDSTOPEVENTRECEIVER.H
C:\USERS\USER\ONEDRIVE\바탕 화면\3학년2학기\GSE\GSE\SIMPLEGAME\SIMPLEGAME\DEPENDENCIES\IK_ISOUNDDEVICELIST.H
C:\USERS\USER\ONEDRIVE\바탕 화면\3학년2학기\GSE\GSE\SIMPLEGAME\SIMPLEGAME\DEPENDENCIES\IK_IAUDIORECORDER.H
^C:\USERS\USER\ONEDRIVE\바탕 화면\3학년2학기\GSE\GSE\SIMPLEGAME\SIMPLEGAME\GSEOBJECTMGR.CPP
C:\WINDOWS\GLOBALIZATION\SORTING\SORTDEFAULT.NLS
C:\USERS\USER\ONEDRIVE\바탕 화면\3학년2학기\GSE\GSE\SIMPLEGAME\SIMPLEGAME\X64\DEBUG\SIMPLEGAME.PCH
C:\PROGRAM FILES (X86)\MICROSOFT VISUAL STUDIO\2019\COMMUNITY\VC\TOOLS\MSVC\14.29.30133\BIN\HOSTX64\X64\1042\CLUI.DLL
C:\WINDOWS\SYSTEM32\TZRES.DLL
C:\USERS\USER\ONEDRIVE\바탕 화면\3학년2학기\GSE\GSE\SIMPLEGAME\SIMPLEGAME\GSEOBJECTMGR.H
C:\USERS\USER\ONEDRIVE\바탕 화면\3학년2학기\GSE\GSE\SIMPLEGAME\SIMPLEGAME\GLOBAL.H
C:\USERS\USER\ONEDRIVE\바탕 화면\3학년2학기\GSE\GSE\SIMPLEGAME\SIMPLEGAME\GSEOBJECT.H
^C:\USERS\USER\ONEDRIVE\바탕 화면\3학년2학기\GSE\GSE\SIMPLEGAME\SIMPLEGAME\GSEGAME.CPP
C:\WINDOWS\GLOBALIZATION\SORTING\SORTDEFAULT.NLS
C:\USERS\USER\ONEDRIVE\바탕 화면\3학년2학기\GSE\GSE\SIMPLEGAME\SIMPLEGAME\X64\DEBUG\SIMPLEGAME.PCH
C:\PROGRAM FILES (X86)\MICROSOFT VISUAL STUDIO\2019\COMMUNITY\VC\TOOLS\MSVC\14.29.30133\BIN\HOSTX64\X64\1042\CLUI.DLL
C:\WINDOWS\SYSTEM32\TZRES.DLL
C:\USERS\USER\ONEDRIVE\바탕 화면\3학년2학기\GSE\GSE\SIMPLEGAME\SIMPLEGAME\GSEGAME.H
C:\USERS\USER\ONEDRIVE\바탕 화면\3학년2학기\GSE\GSE\SIMPLEGAME\SIMPLEGAME\GLOBAL.H
C:\USERS\USER\ONEDRIVE\바탕 화면\3학년2학기\GSE\GSE\SIMPLEGAME\SIMPLEGAME\RENDERER.H
C:\PROGRAM FILES (X86)\MICROSOFT VISUAL STUDIO\2019\COMMUNITY\VC\TOOLS\MSVC\14.29.30133\INCLUDE\STRING
C:\PROGRAM FILES (X86)\MICROSOFT VISUAL STUDIO\2019\COMMUNITY\VC\TOOLS\MSVC\14.29.30133\INCLUDE\FSTREAM
C:\PROGRAM FILES (X86)\WINDOWS KITS\10\INCLUDE\10.0.22621.0\UCRT\ASSERT.H
C:\USERS\USER\ONEDRIVE\바탕 화면\3학년2학기\GSE\GSE\SIMPLEGAME\SIMPLEGAME\DEPENDENCIES\GLEW.H
C:\PROGRAM FILES (X86)\WINDOWS KITS\10\INCLUDE\10.0.22621.0\UM\GL\GLU.H
C:\PROGRAM FILES (X86)\WINDOWS KITS\10\INCLUDE\10.0.22621.0\SHARED\WINAPIFAMILY.H
C:\PROGRAM FILES (X86)\WINDOWS KITS\10\INCLUDE\10.0.22621.0\SHARED\WINPACKAGEFAMILY.H
C:\PROGRAM FILES (X86)\WINDOWS KITS\10\INCLUDE\10.0.22621.0\UM\GL\GL.H
C:\USERS\USER\ONEDRIVE\바탕 화면\3학년2학기\GSE\GSE\SIMPLEGAME\SIMPLEGAME\DEPENDENCIES\GLM\GLM.HPP
C:\USERS\USER\ONEDRIVE\바탕 화면\3학년2학기\GSE\GSE\SIMPLEGAME\SIMPLEGAME\DEPENDENCIES\GLM\DETAIL\_FIXES.HPP
C:\PROGRAM FILES (X86)\MICROSOFT VISUAL STUDIO\2019\COMMUNITY\VC\TOOLS\MSVC\14.29.30133\INCLUDE\CASSERT
C:\USERS\USER\ONEDRIVE\바탕 화면\3학년2학기\GSE\GSE\SIMPLEGAME\SIMPLEGAME\DEPENDENCIES\GLM\FWD.HPP
C:\USERS\USER\ONEDRIVE\바탕 화면\3학년2학기\GSE\GSE\SIMPLEGAME\SIMPLEGAME\DEPENDENCIES\GLM\DETAIL\TYPE_INT.HPP
C:\USERS\USER\ONEDRIVE\바탕 화면\3학년2학기\GSE\GSE\SIMPLEGAME\SIMPLEGAME\DEPENDENCIES\GLM\DETAIL\SETUP.HPP
C:\USERS\USER\ONEDRIVE\바탕 화면\3학년2학기\GSE\GSE\SIMPLEGAME\SIMPLEGAME\DEPENDENCIES\GLM\SIMD\PLATFORM.H
C:\PROGRAM FILES (X86)\MICROSOFT VISUAL STUDIO\2019\COMMUNITY\VC\TOOLS\MSVC\14.29.30133\INCLUDE\EMMINTRIN.H
C:\PROGRAM FILES (X86)\MICROSOFT VISUAL STUDIO\2019\COMMUNITY\VC\TOOLS\MSVC\14.29.30133\INCLUDE\XMMINTRIN.H
C:\PROGRAM FILES (X86)\MICROSOFT VISUAL STUDIO\2019\COMMUNITY\VC\TOOLS\MSVC\14.29.30133\INCLUDE\MMINTRIN.H
C:\USERS\USER\ONEDRIVE\바탕 화면\3학년2학기\GSE\GSE\SIMPLEGAME\SIMPLEGAME\DEPENDENCIES\GLM\DETAIL\TYPE_FLOAT.HPP
C:\USERS\USER\ONEDRIVE\바탕 화면\3학년2학기\GSE\GSE\SIMPLEGAME\SIMPLEGAME\DEPENDENCIES\GLM\DETAIL\TYPE_VEC.HPP
C:\USERS\USER\ONEDRIVE\바탕 화면\3학년2학기\GSE\GSE\SIMPLEGAME\SIMPLEGAME\DEPENDENCIES\GLM\DETAIL\PRECISION.HPP
C:\USERS\USER\ONEDRIVE\바탕 화면\3학년2학기\GSE\GSE\SIMPLEGAME\SIMPLEGAME\DEPENDENCIES\GLM\DETAIL\TYPE_MAT.HPP
C:\USERS\USER\ONEDRIVE\바탕 화면\3학년2학기\GSE\GSE\SIMPLEGAME\SIMPLEGAME\DEPENDENCIES\GLM\VEC2.HPP
C:\USERS\USER\ONEDRIVE\바탕 화면\3학년2학기\GSE\GSE\SIMPLEGAME\SIMPLEGAME\DEPENDENCIES\GLM\DETAIL\TYPE_VEC2.HPP
C:\USERS\USER\ONEDRIVE\바탕 화면\3학년2학기\GSE\GSE\SIMPLEGAME\SIMPLEGAME\DEPENDENCIES\GLM\DETAIL\TYPE_VEC2.INL
C:\USERS\USER\ONEDRIVE\바탕 화면\3학년2학기\GSE\GSE\SIMPLEGAME\SIMPLEGAME\DEPENDENCIES\GLM\VEC3.HPP
C:\USERS\USER\ONEDRIVE\바탕 화면\3학년2학기\GSE\GSE\SIMPLEGAME\SIMPLEGAME\DEPENDENCIES\GLM\DETAIL\TYPE_VEC3.HPP
C:\USERS\USER\ONEDRIVE\바탕 화면\3학년2학기\GSE\GSE\SIMPLEGAME\SIMPLEGAME\DEPENDENCIES\GLM\DETAIL\TYPE_VEC3.INL
C:\USERS\USER\ONEDRIVE\바탕 화면\3학년2학기\GSE\GSE\SIMPLEGAME\SIMPLEGAME\DEPENDENCIES\GLM\VEC4.HPP
C:\USERS\USER\ONEDRIVE\바탕 화면\3학년2학기\GSE\GSE\SIMPLEGAME\SIMPLEGAME\DEPENDENCIES\GLM\DETAIL\TYPE_VEC4.HPP
C:\USERS\USER\ONEDRIVE\바탕 화면\3학년2학기\GSE\GSE\SIMPLEGAME\SIMPLEGAME\DEPENDENCIES\GLM\DETAIL\TYPE_VEC4.INL
C:\USERS\USER\ONEDRIVE\바탕 화면\3학년2학기\GSE\GSE\SIMPLEGAME\SIMPLEGAME\DEPENDENCIES\GLM\DETAIL\TYPE_VEC4_SIMD.INL
C:\USERS\USER\ONEDRIVE\바탕 화면\3학년2학기\GSE\GSE\SIMPLEGAME\SIMPLEGAME\DEPENDENCIES\GLM\MAT2X2.HPP
C:\USERS\USER\ONEDRIVE\바탕 화면\3학년2학기\GSE\GSE\SIMPLEGAME\SIMPLEGAME\DEPENDENCIES\GLM\DETAIL\TYPE_MAT2X2.HPP
C:\USERS\USER\ONEDRIVE\바탕 화면\3학년2학기\GSE\GSE\SIMPLEGAME\SIMPLEGAME\DEPENDENCIES\GLM\DETAIL\TYPE_MAT2X2.INL
C:\USERS\USER\ONEDRIVE\바탕 화면\3학년2학기\GSE\GSE\SIMPLEGAME\SIMPLEGAME\DEPENDENCIES\GLM\DETAIL\FUNC_MATRIX.HPP
C:\USERS\USER\ONEDRIVE\바탕 화면\3학년2학기\GSE\GSE\SIMPLEGAME\SIMPLEGAME\DEPENDENCIES\GLM\MAT2X3.HPP
C:\USERS\USER\ONEDRIVE\바탕 화면\3학년2학기\GSE\GSE\SIMPLEGAME\SIMPLEGAME\DEPENDENCIES\GLM\DETAIL\TYPE_MAT2X3.HPP
C:\USERS\USER\ONEDRIVE\바탕 화면\3학년2학기\GSE\GSE\SIMPLEGAME\SIMPLEGAME\DEPENDENCIES\GLM\DETAIL\TYPE_MAT2X3.INL
C:\USERS\USER\ONEDRIVE\바탕 화면\3학년2학기\GSE\GSE\SIMPLEGAME\SIMPLEGAME\DEPENDENCIES\GLM\MAT2X4.HPP
C:\USERS\USER\ONEDRIVE\바탕 화면\3학년2학기\GSE\GSE\SIMPLEGAME\SIMPLEGAME\DEPENDENCIES\GLM\DETAIL\TYPE_MAT2X4.HPP
C:\USERS\USER\ONEDRIVE\바탕 화면\3학년2학기\GSE\GSE\SIMPLEGAME\SIMPLEGAME\DEPENDENCIES\GLM\DETAIL\TYPE_MAT2X4.INL
C:\USERS\USER\ONEDRIVE\바탕 화면\3학년2학기\GSE\GSE\SIMPLEGAME\SIMPLEGAME\DEPENDENCIES\GLM\MAT3X2.HPP
C:\USERS\USER\ONEDRIVE\바탕 화면\3학년2학기\GSE\GSE\SIMPLEGAME\SIMPLEGAME\DEPENDENCIES\GLM\DETAIL\TYPE_MAT3X2.HPP
C:\USERS\USER\ONEDRIVE\바탕 화면\3학년2학기\GSE\GSE\SIMPLEGAME\SIMPLEGAME\DEPENDENCIES\GLM\DETAIL\TYPE_MAT3X2.INL
C:\USERS\USER\ONEDRIVE\바탕 화면\3학년2학기\GSE\GSE\SIMPLEGAME\SIMPLEGAME\DEPENDENCIES\GLM\MAT3X3.HPP
C:\USERS\USER\ONEDRIVE\바탕 화면\3학년2학기\GSE\GSE\SIMPLEGAME\SIMPLEGAME\DEPENDENCIES\GLM\DETAIL\TYPE_MAT3X3.HPP
C:\USERS\USER\ONEDRIVE\바탕 화면\3학년2학기\GSE\GSE\SIMPLEGAME\SIMPLEGAME\DEPENDENCIES\GLM\DETAIL\TYPE_MAT3X3.INL
C:\USERS\USER\ONEDRIVE\바탕 화면\3학년2학기\GSE\GSE\SIMPLEGAME\SIMPLEGAME\DEPENDENCIES\GLM\MAT3X4.HPP
C:\USERS\USER\ONEDRIVE\바탕 화면\3학년2학기\GSE\GSE\SIMPLEGAME\SIMPLEGAME\DEPENDENCIES\GLM\DETAIL\TYPE_MAT3X4.HPP
C:\USERS\USER\ONEDRIVE\바탕 화면\3학년2학기\GSE\GSE\SIMPLEGAME\SIMPLEGAME\DEPENDENCIES\GLM\DETAIL\TYPE_MAT3X4.INL
C:\USERS\USER\ONEDRIVE\바탕 화면\3학년2학기\GSE\GSE\SIMPLEGAME\SIMPLEGAME\DEPENDENCIES\GLM\MAT4X2.HPP
C:\USERS\USER\ONEDRIVE\바탕 화면\3학년2학기\GSE\GSE\SIMPLEGAME\SIMPLEGAME\DEPENDENCIES\GLM\DETAIL\TYPE_MAT4X2.HPP
C:\USERS\USER\ONEDRIVE\바탕 화면\3학년2학기\GSE\GSE\SIMPLEGAME\SIMPLEGAME\DEPENDENCIES\GLM\DETAIL\TYPE_MAT4X2.INL
C:\USERS\USER\ONEDRIVE\바탕 화면\3학년2학기\GSE\GSE\SIMPLEGAME\SIMPLEGAME\DEPENDENCIES\GLM\MAT4X3.HPP
C:\USERS\USER\ONEDRIVE\바탕 화면\3학년2학기\GSE\GSE\SIMPLEGAME\SIMPLEGAME\DEPENDENCIES\GLM\DETAIL\TYPE_MAT4X3.HPP
C:\USERS\USER\ONEDRIVE\바탕 화면\3학년2학기\GSE\GSE\SIMPLEGAME\SIMPLEGAME\DEPENDENCIES\GLM\DETAIL\TYPE_MAT4X3.INL
C:\USERS\USER\ONEDRIVE\바탕 화면\3학년2학기\GSE\GSE\SIMPLEGAME\SIMPLEGAME\DEPENDENCIES\GLM\MAT4X4.HPP
C:\USERS\USER\ONEDRIVE\바탕 화면\3학년2학기\GSE\GSE\SIMPLEGAME\SIMPLEGAME\DEPENDENCIES\GLM\DETAIL\TYPE_MAT4X4.HPP
C:\USERS\USER\ONEDRIVE\바탕 화면\3학년2학기\GSE\GSE\SIMPLEGAME\SIMPLEGAME\DEPENDENCIES\GLM\DETAIL\TYPE_MAT4X4.INL
C:\USERS\USER\ONEDRIVE\바탕 화면\3학년2학기\GSE\GSE\SIMPLEGAME\SIMPLEGAME\DEPENDENCIES\GLM\DETAIL\TYPE_MAT4X4_SIMD.INL
C:\USERS\USER\ONEDRIVE\바탕 화면\3학년2학기\GSE\GSE\SIMPLEGAME\SIMPLEGAME\DEPENDENCIES\GLM\DETAIL\FUNC_MATRIX.INL
C:\USERS\USER\ONEDRIVE\바탕 화면\3학년2학기\GSE\GSE\SIMPLEGAME\SIMPLEGAME\DEPENDENCIES\GLM\GEOMETRIC.HPP
C:\USERS\USER\ONEDRIVE\바탕 화면\3학년2학기\GSE\GSE\SIMPLEGAME\SIMPLEGAME\DEPENDENCIES\GLM\DETAIL\FUNC_GEOMETRIC.HPP
C:\USERS\USER\ONEDRIVE\바탕 화면\3학년2학기\GSE\GSE\SIMPLEGAME\SIMPLEGAME\DEPENDENCIES\GLM\DETAIL\FUNC_GEOMETRIC.INL
C:\USERS\USER\ONEDRIVE\바탕 화면\3학년2학기\GSE\GSE\SIMPLEGAME\SIMPLEGAME\DEPENDENCIES\GLM\DETAIL\FUNC_EXPONENTIAL.HPP
C:\USERS\USER\ONEDRIVE\바탕 화면\3학년2학기\GSE\GSE\SIMPLEGAME\SIMPLEGAME\DEPENDENCIES\GLM\DETAIL\TYPE_VEC1.HPP
C:\USERS\USER\ONEDRIVE\바탕 화면\3학년2학기\GSE\GSE\SIMPLEGAME\SIMPLEGAME\DEPENDENCIES\GLM\DETAIL\TYPE_VEC1.INL
C:\USERS\USER\ONEDRIVE\바탕 화면\3학년2학기\GSE\GSE\SIMPLEGAME\SIMPLEGAME\DEPENDENCIES\GLM\DETAIL\FUNC_EXPONENTIAL.INL
C:\USERS\USER\ONEDRIVE\바탕 화면\3학년2학기\GSE\GSE\SIMPLEGAME\SIMPLEGAME\DEPENDENCIES\GLM\DETAIL\FUNC_VECTOR_RELATIONAL.HPP
C:\USERS\USER\ONEDRIVE\바탕 화면\3학년2학기\GSE\GSE\SIMPLEGAME\SIMPLEGAME\DEPENDENCIES\GLM\DETAIL\FUNC_VECTOR_RELATIONAL.INL
C:\USERS\USER\ONEDRIVE\바탕 화면\3학년2학기\GSE\GSE\SIMPLEGAME\SIMPLEGAME\DEPENDENCIES\GLM\DETAIL\FUNC_VECTOR_RELATIONAL_SIMD.INL
C:\USERS\USER\ONEDRIVE\바탕 화면\3학년2학기\GSE\GSE\SIMPLEGAME\SIMPLEGAME\DEPENDENCIES\GLM\DETAIL\_VECTORIZE.HPP
C:\USERS\USER\ONEDRIVE\바탕 화면\3학년2학기\GSE\GSE\SIMPLEGAME\SIMPLEGAME\DEPENDENCIES\GLM\DETAIL\FUNC_EXPONENTIAL_SIMD.INL
C:\USERS\USER\ONEDRIVE\바탕 화면\3학년2학기\GSE\GSE\SIMPLEGAME\SIMPLEGAME\DEPENDENCIES\GLM\SIMD\EXPONENTIAL.H
C:\USERS\USER\ONEDRIVE\바탕 화면\3학년2학기\GSE\GSE\SIMPLEGAME\SIMPLEGAME\DEPENDENCIES\GLM\DETAIL\FUNC_COMMON.HPP
C:\USERS\USER\ONEDRIVE\바탕 화면\3학년2학기\GSE\GSE\SIMPLEGAME\SIMPLEGAME\DEPENDENCIES\GLM\DETAIL\FUNC_COMMON.INL
C:\USERS\USER\ONEDRIVE\바탕 화면\3학년2학기\GSE\GSE\SIMPLEGAME\SIMPLEGAME\DEPENDENCIES\GLM\DETAIL\FUNC_COMMON_SIMD.INL
C:\USERS\USER\ONEDRIVE\바탕 화면\3학년2학기\GSE\GSE\SIMPLEGAME\SIMPLEGAME\DEPENDENCIES\GLM\SIMD\COMMON.H
C:\PROGRAM FILES (X86)\MICROSOFT VISUAL STUDIO\2019\COMMUNITY\VC\TOOLS\MSVC\14.29.30133\INCLUDE\IMMINTRIN.H
C:\PROGRAM FILES (X86)\MICROSOFT VISUAL STUDIO\2019\COMMUNITY\VC\TOOLS\MSVC\14.29.30133\INCLUDE\WMMINTRIN.H
C:\PROGRAM FILES (X86)\MICROSOFT VISUAL STUDIO\2019\COMMUNITY\VC\TOOLS\MSVC\14.29.30133\INCLUDE\NMMINTRIN.H
C:\PROGRAM FILES (X86)\MICROSOFT VISUAL STUDIO\2019\COMMUNITY\VC\TOOLS\MSVC\14.29.30133\INCLUDE\SMMINTRIN.H
C:\PROGRAM FILES (X86)\MICROSOFT VISUAL STUDIO\2019\COMMUNITY\VC\TOOLS\MSVC\14.29.30133\INCLUDE\TMMINTRIN.H
C:\PROGRAM FILES (X86)\MICROSOFT VISUAL STUDIO\2019\COMMUNITY\VC\TOOLS\MSVC\14.29.30133\INCLUDE\PMMINTRIN.H
C:\PROGRAM FILES (X86)\MICROSOFT VISUAL STUDIO\2019\COMMUNITY\VC\TOOLS\MSVC\14.29.30133\INCLUDE\ZMMINTRIN.H
C:\USERS\USER\ONEDRIVE\바탕 화면\3학년2학기\GSE\GSE\SIMPLEGAME\SIMPLEGAME\DEPENDENCIES\GLM\DETAIL\FUNC_GEOMETRIC_SIMD.INL
C:\USERS\USER\ONEDRIVE\바탕 화면\3학년2학기\GSE\GSE\SIMPLEGAME\SIMPLEGAME\DEPENDENCIES\GLM\SIMD\GEOMETRIC.H
C:\USERS\USER\ONEDRIVE\바탕 화면\3학년2학기\GSE\GSE\SIMPLEGAME\SIMPLEGAME\DEPENDENCIES\GLM\DETAIL\FUNC_MATRIX_SIMD.INL
C:\USERS\USER\ONEDRIVE\바탕 화면\3학년2학기\GSE\GSE\SIMPLEGAME\SIMPLEGAME\DEPENDENCIES\GLM\SIMD\MATRIX.H
C:\USERS\USER\ONEDRIVE\바탕 화면\3학년2학기\GSE\GSE\SIMPLEGAME\SIMPLEGAME\DEPENDENCIES\GLM\TRIGONOMETRIC.HPP
C:\USERS\USER\ONEDRIVE\바탕 화면\3학년2학기\GSE\GSE\SIMPLEGAME\SIMPLEGAME\DEPENDENCIES\GLM\DETAIL\FUNC_TRIGONOMETRIC.HPP
C:\USERS\USER\ONEDRIVE\바탕 화면\3학년2학기\GSE\GSE\SIMPLEGAME\SIMPLEGAME\DEPENDENCIES\GLM\DETAIL\FUNC_TRIGONOMETRIC.INL
C:\USERS\USER\ONEDRIVE\바탕 화면\3학년2학기\GSE\GSE\SIMPLEGAME\SIMPLEGAME\DEPENDENCIES\GLM\DETAIL\FUNC_TRIGONOMETRIC_SIMD.INL
C:\USERS\USER\ONEDRIVE\바탕 화면\3학년2학기\GSE\GSE\SIMPLEGAME\SIMPLEGAME\DEPENDENCIES\GLM\EXPONENTIAL.HPP
C:\USERS\USER\ONEDRIVE\바탕 화면\3학년2학기\GSE\GSE\SIMPLEGAME\SIMPLEGAME\DEPENDENCIES\GLM\COMMON.HPP
C:\USERS\USER\ONEDRIVE\바탕 화면\3학년2학기\GSE\GSE\SIMPLEGAME\SIMPLEGAME\DEPENDENCIES\GLM\PACKING.HPP
C:\USERS\USER\ONEDRIVE\바탕 화면\3학년2학기\GSE\GSE\SIMPLEGAME\SIMPLEGAME\DEPENDENCIES\GLM\DETAIL\FUNC_PACKING.HPP
C:\USERS\USER\ONEDRIVE\바탕 화면\3학년2학기\GSE\GSE\SIMPLEGAME\SIMPLEGAME\DEPENDENCIES\GLM\DETAIL\FUNC_PACKING.INL
C:\USERS\USER\ONEDRIVE\바탕 화면\3학년2학기\GSE\GSE\SIMPLEGAME\SIMPLEGAME\DEPENDENCIES\GLM\DETAIL\TYPE_HALF.HPP
C:\USERS\USER\ONEDRIVE\바탕 화면\3학년2학기\GSE\GSE\SIMPLEGAME\SIMPLEGAME\DEPENDENCIES\GLM\DETAIL\TYPE_HALF.INL
C:\USERS\USER\ONEDRIVE\바탕 화면\3학년2학기\GSE\GSE\SIMPLEGAME\SIMPLEGAME\DEPENDENCIES\GLM\DETAIL\FUNC_PACKING_SIMD.INL
C:\USERS\USER\ONEDRIVE\바탕 화면\3학년2학기\GSE\GSE\SIMPLEGAME\SIMPLEGAME\DEPENDENCIES\GLM\MATRIX.HPP
C:\USERS\USER\ONEDRIVE\바탕 화면\3학년2학기\GSE\GSE\SIMPLEGAME\SIMPLEGAME\DEPENDENCIES\GLM\VECTOR_RELATIONAL.HPP
C:\USERS\USER\ONEDRIVE\바탕 화면\3학년2학기\GSE\GSE\SIMPLEGAME\SIMPLEGAME\DEPENDENCIES\GLM\INTEGER.HPP
C:\USERS\USER\ONEDRIVE\바탕 화면\3학년2학기\GSE\GSE\SIMPLEGAME\SIMPLEGAME\DEPENDENCIES\GLM\DETAIL\FUNC_INTEGER.HPP
C:\USERS\USER\ONEDRIVE\바탕 화면\3학년2학기\GSE\GSE\SIMPLEGAME\SIMPLEGAME\DEPENDENCIES\GLM\DETAIL\FUNC_INTEGER.INL
C:\PROGRAM FILES (X86)\MICROSOFT VISUAL STUDIO\2019\COMMUNITY\VC\TOOLS\MSVC\14.29.30133\INCLUDE\INTRIN.H
C:\PROGRAM FILES (X86)\MICROSOFT VISUAL STUDIO\2019\COMMUNITY\VC\TOOLS\MSVC\14.29.30133\INCLUDE\SETJMP.H
C:\PROGRAM FILES (X86)\MICROSOFT VISUAL STUDIO\2019\COMMUNITY\VC\TOOLS\MSVC\14.29.30133\INCLUDE\AMMINTRIN.H
C:\USERS\USER\ONEDRIVE\바탕 화면\3학년2학기\GSE\GSE\SIMPLEGAME\SIMPLEGAME\DEPENDENCIES\GLM\DETAIL\FUNC_INTEGER_SIMD.INL
C:\USERS\USER\ONEDRIVE\바탕 화면\3학년2학기\GSE\GSE\SIMPLEGAME\SIMPLEGAME\DEPENDENCIES\GLM\SIMD\INTEGER.H
C:\USERS\USER\ONEDRIVE\바탕 화면\3학년2학기\GSE\GSE\SIMPLEGAME\SIMPLEGAME\DEPENDENCIES\GLM\GTC\MATRIX_TRANSFORM.HPP
C:\USERS\USER\ONEDRIVE\바탕 화면\3학년2학기\GSE\GSE\SIMPLEGAME\SIMPLEGAME\DEPENDENCIES\GLM\GTC\CONSTANTS.HPP
C:\USERS\USER\ONEDRIVE\바탕 화면\3학년2학기\GSE\GSE\SIMPLEGAME\SIMPLEGAME\DEPENDENCIES\GLM\GTC\CONSTANTS.INL
C:\USERS\USER\ONEDRIVE\바탕 화면\3학년2학기\GSE\GSE\SIMPLEGAME\SIMPLEGAME\DEPENDENCIES\GLM\GTC\MATRIX_TRANSFORM.INL
C:\USERS\USER\ONEDRIVE\바탕 화면\3학년2학기\GSE\GSE\SIMPLEGAME\SIMPLEGAME\DEPENDENCIES\GLM\GTX\EULER_ANGLES.HPP
C:\USERS\USER\ONEDRIVE\바탕 화면\3학년2학기\GSE\GSE\SIMPLEGAME\SIMPLEGAME\DEPENDENCIES\GLM\GTX\EULER_ANGLES.INL
C:\USERS\USER\ONEDRIVE\바탕 화면\3학년2학기\GSE\GSE\SIMPLEGAME\SIMPLEGAME\DEPENDENCIES\GLM\GTX\COMPATIBILITY.HPP
C:\USERS\USER\ONEDRIVE\바탕 화면\3학년2학기\GSE\GSE\SIMPLEGAME\SIMPLEGAME\DEPENDENCIES\GLM\GTC\QUATERNION.HPP
C:\USERS\USER\ONEDRIVE\바탕 화면\3학년2학기\GSE\GSE\SIMPLEGAME\SIMPLEGAME\DEPENDENCIES\GLM\GTC\QUATERNION.INL
C:\USERS\USER\ONEDRIVE\바탕 화면\3학년2학기\GSE\GSE\SIMPLEGAME\SIMPLEGAME\DEPENDENCIES\GLM\GTC\QUATERNION_SIMD.INL
C:\USERS\USER\ONEDRIVE\바탕 화면\3학년2학기\GSE\GSE\SIMPLEGAME\SIMPLEGAME\DEPENDENCIES\GLM\GTX\COMPATIBILITY.INL
C:\USERS\USER\ONEDRIVE\바탕 화면\3학년2학기\GSE\GSE\SIMPLEGAME\SIMPLEGAME\LOADPNG.H
C:\USERS\USER\ONEDRIVE\바탕 화면\3학년2학기\GSE\GSE\SIMPLEGAME\SIMPLEGAME\GSEOBJECTMGR.H
C:\USERS\USER\ONEDRIVE\바탕 화면\3학년2학기\GSE\GSE\SIMPLEGAME\SIMPLEGAME\GSEOBJECT.H
C:\USERS\USER\ONEDRIVE\바탕 화면\3학년2학기\GSE\GSE\SIMPLEGAME\SIMPLEGAME\SOUND.H
C:\PROGRAM FILES (X86)\MICROSOFT VISUAL STUDIO\2019\COMMUNITY\VC\TOOLS\MSVC\14.29.30133\INCLUDE\MAP
C:\PROGRAM FILES (X86)\MICROSOFT VISUAL STUDIO\2019\COMMUNITY\VC\TOOLS\MSVC\14.29.30133\INCLUDE\TUPLE
C:\PROGRAM FILES (X86)\MICROSOFT VISUAL STUDIO\2019\COMMUNITY\VC\TOOLS\MSVC\14.29.30133\INCLUDE\XTREE
C:\USERS\USER\ONEDRIVE\바탕 화면\3학년2학기\GSE\GSE\SIMPLEGAME\SIMPLEGAME\DEPENDENCIES\IRRKLANG.H
C:\USERS\USER\ONEDRIVE\바탕 화면\3학년2학기\GSE\GSE\SIMPLEGAME\SIMPLEGAME\DEPENDENCIES\IK_IRRKLANGTYPES.H
C:\USERS\USER\ONEDRIVE\바탕 화면\3학년2학기\GSE\GSE\SIMPLEGAME\SIMPLEGAME\DEPENDENCIES\IK_VEC3D.H
C:\PROGRAM FILES (X86)\WINDOWS KITS\10\INCLUDE\10.0.22621.0\UCRT\MATH.H
C:\USERS\USER\ONEDRIVE\바탕 화면\3학년2학기\GSE\GSE\SIMPLEGAME\SIMPLEGAME\DEPENDENCIES\IK_IREFCOUNTED.H
C:\USERS\USER\ONEDRIVE\바탕 화면\3학년2학기\GSE\GSE\SIMPLEGAME\SIMPLEGAME\DEPENDENCIES\IK_IVIRTUALREFCOUNTED.H
C:\USERS\USER\ONEDRIVE\바탕 화면\3학년2학기\GSE\GSE\SIMPLEGAME\SIMPLEGAME\DEPENDENCIES\IK_ESOUNDOUTPUTDRIVERS.H
C:\USERS\USER\ONEDRIVE\바탕 화면\3학년2학기\GSE\GSE\SIMPLEGAME\SIMPLEGAME\DEPENDENCIES\IK_ESOUNDENGINEOPTIONS.H
C:\USERS\USER\ONEDRIVE\바탕 화면\3학년2학기\GSE\GSE\SIMPLEGAME\SIMPLEGAME\DEPENDENCIES\IK_ESTREAMMODES.H
C:\USERS\USER\ONEDRIVE\바탕 화면\3학년2학기\GSE\GSE\SIMPLEGAME\SIMPLEGAME\DEPENDENCIES\IK_SAUDIOSTREAMFORMAT.H
C:\USERS\USER\ONEDRIVE\바탕 화면\3학년2학기\GSE\GSE\SIMPLEGAME\SIMPLEGAME\DEPENDENCIES\IK_ISOUNDENGINE.H
C:\USERS\USER\ONEDRIVE\바탕 화면\3학년2학기\GSE\GSE\SIMPLEGAME\SIMPLEGAME\DEPENDENCIES\IK_ISOUNDSOURCE.H
C:\USERS\USER\ONEDRIVE\바탕 화면\3학년2학기\GSE\GSE\SIMPLEGAME\SIMPLEGAME\DEPENDENCIES\IK_ISOUND.H
C:\USERS\USER\ONEDRIVE\바탕 화면\3학년2학기\GSE\GSE\SIMPLEGAME\SIMPLEGAME\DEPENDENCIES\IK_ISOUNDEFFECTCONTROL.H
C:\USERS\USER\ONEDRIVE\바탕 화면\3학년2학기\GSE\GSE\SIMPLEGAME\SIMPLEGAME\DEPENDENCIES\IK_IFILEFACTORY.H
C:\USERS\USER\ONEDRIVE\바탕 화면\3학년2학기\GSE\GSE\SIMPLEGAME\SIMPLEGAME\DEPENDENCIES\IK_ISOUNDMIXEDOUTPUTRECEIVER.H
C:\USERS\USER\ONEDRIVE\바탕 화면\3학년2학기\GSE\GSE\SIMPLEGAME\SIMPLEGAME\DEPENDENCIES\IK_IAUDIOSTREAM.H
C:\USERS\USER\ONEDRIVE\바탕 화면\3학년2학기\GSE\GSE\SIMPLEGAME\SIMPLEGAME\DEPENDENCIES\IK_IAUDIOSTREAMLOADER.H
C:\USERS\USER\ONEDRIVE\바탕 화면\3학년2학기\GSE\GSE\SIMPLEGAME\SIMPLEGAME\DEPENDENCIES\IK_IFILEREADER.H
C:\USERS\USER\ONEDRIVE\바탕 화면\3학년2학기\GSE\GSE\SIMPLEGAME\SIMPLEGAME\DEPENDENCIES\IK_ISOUNDSTOPEVENTRECEIVER.H
C:\USERS\USER\ONEDRIVE\바탕 화면\3학년2학기\GSE\GSE\SIMPLEGAME\SIMPLEGAME\DEPENDENCIES\IK_ISOUNDDEVICELIST.H
C:\USERS\USER\ONEDRIVE\바탕 화면\3학년2학기\GSE\GSE\SIMPLEGAME\SIMPLEGAME\DEPENDENCIES\IK_IAUDIORECORDER.H
